0.279155344571 0.960245954742 0
0.279447092622 0.960161091914 0
0.280302904809 0.959911600907 0
0.281802115622 0.959472546575 0
0.282836254952 0.959168208858 0
0.283301106823 0.959031012467 0
0.283763322101 0.958894351339 0
0.284564382163 0.958656931547 0
0.28555142053 0.958363389448 0
0.286600657897 0.958050135897 0
0.287305514719 0.957838995454 0
0.2875401767 0.95776857684 0
0.287628426089 0.957742078279 0
0.287804613172 0.95768914823 0
0.288151119318 0.957584947895 0
0.288318776986 0.957534481278 0
0.288072738885 0.9576085302 0
0.287480786705 0.957786404829 0
0.28659630059 0.958051439375 0
0.28578902943 0.958292560055 0
0.284914052708 0.958553067164 0
0.284019568743 0.958818483641 0
0.283354795239 0.959015151087 0
0.28302512026 0.959112496687 0
0.283032235012 0.959110397162 0
0.283840901436 0.958871390058 0
0.285178042106 0.958474561113 0
0.286559087755 0.958062570621 0
0.288657804354 0.957432332849 0
0.291346693373 0.956617532905 0
0.292443773282 0.956282719424 0
0.291014100674 0.956718763906 0
0.287691320481 0.957723187628 0
0.282280174774 0.959332008707 0
0.275216593597 0.961382247916 0
0.26754909895 0.963544228176 0
0.260700071086 0.965419842833 0
0.255673719019 0.966763129936 0
0.251482499801 0.967861845665 0
0.247442276043 0.968902637021 0
0.243429812222 0.969918515403 0
0.240281493088 0.970703252328 0
0.238329925047 0.97118424968 0
0.236670337023 0.97159001208 0
0.235980675342 0.971757748035 0
0.236126857538 0.971722237653 0
0.236142083729 0.971718537588 0
0.236438987779 0.971646337439 0
0.23623760661 0.971695319132 0
0.235084337573 0.971974976133 0
0.23223374694 0.972660005748 0
0.228067077329 0.973645422235 0
0.22339577963 0.974727821314 0
0.219503428103 0.975611728635 0
0.216703876291 0.976237384042 0
0.21533766407 0.976539651234 0
0.215070990532 0.976598417484 0
0.215111468829 0.976589502288 0
0.215085808823 0.976595154014 0
0.214825989941 0.976652340419 0
0.2148478873 0.976647523584 0
0.214959615442 0.976622938359 0
0.214993805842 0.976615412253 0
0.215661257796 0.976468239056 0
0.217342952126 0.976095303319 0
0.220037783766 0.975491349893 0
0.223277753245 0.974754864007 0
0.226855036319 0.973928535621 0
0.230277423073 0.97312502199 0
0.232543664164 0.972585957259 0
0.233292508116 0.972406605108 0
0.234633892128 0.972083811543 0
0.234409982508 0.972137829786 0
0.235541537061 0.97186428287 0
0.243107006189 0.969999476052 0
0.247743827217 0.968825575672 0
0.252462332029 0.967606723264 0
0.255696805859 0.966757024011 0
0.255667867602 0.966764677404 0
0.25245977695 0.967607389917 0
0.249961584999 0.96825575445 0
0.244331803146 0.969691688101 0
0.239853416357 0.970809115461 0
0.237929854086 0.971282340277 0
0.238943496991 0.971033472773 0
0.242234667537 0.970217689925 0
0.246699930542 0.969091917349 0
0.250915312771 0.968009042219 0
0.253540321821 0.967324818875 0
0.254020287409 0.967198890397 0
0.253058572543 0.967450959409 0
0.251401400832 0.967882914231 0
0.250381704769 0.968147200542 0
0.251088798771 0.967964056736 0
0.253477697163 0.967341230922 0
0.256818492877 0.966459653434 0
0.259917595555 0.965630800835 0
0.261911566916 0.965091877033 0
0.262043044055 0.96505618648 0
0.260094092789 0.965583276003 0
0.256655689615 0.966502900662 0
0.252904188422 0.967491328891 0
0.249604560794 0.968347852391 0
0.247703753991 0.968835822139 0
0.247711590386 0.968833818561 0
0.249198518285 0.968452424482 0
0.251287983876 0.967912366467 0
0.253367923344 0.967369988898 0
0.255566332493 0.966791523389 0
0.25766324897 0.966234780025 0
0.264185602336 0.964471859371 0
0.266240771728 0.963906557437 0
0.268839626094 0.963184953911 0
0.27178874324 0.962356939523 0
0.281056997878 0.959691077349 0
0.281742261965 0.95949012388 0
0.28085931981 0.95974894763 0
0.279036101192 0.960280612234 0
0.28465090227 0.958631244972 0
0.284357949444 0.958718184133 0
0.285607456771 0.958346691254 0
0.288685291226 0.957424045358 0
0.290320662012 0.956929419136 0
0.295843137874 0.955236534986 0
0.301301517119 0.953528917119 0
0.306134326341 0.951988326733 0
0.310059215636 0.950717246503 0
0.313851122339 0.949472207601 0
0.317425459199 0.948283226601 0
0.320565670222 0.947226293488 0
0.324888119452 0.945752456956 0
0.326293203346 0.945268610211 0
0.326714917074 0.945122935369 0
0.326316851118 0.945260447007 0
0.324990540824 0.945717266615 0
0.325481750154 0.945548322571 0
0.327319187045 0.94491383194 0
0.329601185304 0.944120256454 0
0.334152185389 0.942519133493 0
0.339310026023 0.940674601677 0
0.343764364195 0.939055941843 0
0.347032056066 0.937853267874 0
0.349052190522 0.937103285818 0
0.349816369616 0.936818289504 0
0.349358658004 0.936989075751 0
0.348156085641 0.937436579205 0
0.34730987233 0.937750421265 0
0.347237119286 0.937777363232 0
0.347640958932 0.937627731924 0
0.348050493783 0.937475788369 0
0.348256597197 0.937399243924 0
0.348336421005 0.937369584423 0
0.347929283163 0.937520780526 0
0.346591764493 0.938016070644 0
0.344710873439 0.93870890788 0
0.342848351121 0.939390764343 0
0.341350702227 0.939936007443 0
0.340221388652 0.940345365652 0
0.339568037409 0.940581494593 0
0.339437473649 0.940628620383 0
0.339792525531 0.940500419773 0
0.340165792823 0.940365478627 0
0.339958707191 0.940440363556 0
0.339009349359 0.94078300423 0
0.337876415941 0.941190484201 0
0.33689622317 0.941541786016 0
0.336105138534 0.94182447189 0
0.331071455512 0.943605686368 0
0.331065084947 0.943607921506 0
0.331527914512 0.943445410132 0
0.332042913674 0.943264280824 0
0.330329472595 0.943865689352 0
0.330114310377 0.943940963241 0
0.329341693662 0.944210807403 0
0.326408526105 0.945228794571 0
0.325705738371 0.945471190461 0
0.325641125049 0.94549344666 0
0.326260536731 0.945279885627 0
0.324328228281 0.945944607438 0
0.324701383406 0.945816584552 0
0.324260651609 0.945967774196 0
0.323004901605 0.946397291595 0
0.321245022219 0.946996111766 0
0.319365840134 0.947631500192 0
0.316146630833 0.948710339257 0
0.3169476878 0.948443020533 0
0.320607888644 0.947212004643 0
0.326552795866 0.94517896269 0
0.332386752158 0.943143174173 0
0.339505437763 0.940604091916 0
0.344322013175 0.938851613006 0
0.345356954919 0.938471402702 0
0.35521413685 0.934784957614 0
0.34987841438 0.93679511909 0
0.342863841698 0.939385110621 0
0.335455168338 0.94205617138 0
0.32897635011 0.944338160337 0
0.324324136891 0.945946010209 0
0.321691508181 0.946844535055 0
0.321060979722 0.947058523693 0
0.322269866467 0.946647840101 0
0.324715631197 0.945811693127 0
0.327695305487 0.94478346025 0
0.330249723836 0.943893595648 0
0.331856712619 0.943329805683 0
0.332419609905 0.943131593655 0
0.332174955068 0.943217789922 0
0.331074548442 0.943604601183 0
0.328959639921 0.944343981451 0
0.325901074608 0.94540387643 0
0.322639949284 0.946521771079 0
0.319865248831 0.947463045501 0
0.317899740375 0.948124335237 0
0.316953883737 0.948440949972 0
0.317523605684 0.948250367695 0
0.319375806097 0.947628141456 0
0.321936009215 0.946761430335 0
0.324687226477 0.945821444546 0
0.327044890733 0.945008803898 0
0.328804746881 0.944397923774 0
0.329890064664 0.944019356388 0
0.330351504103 0.943857978584 0
0.330668146425 0.943747093738 0
0.332241347391 0.943194405774 0
0.331122486624 0.943587780152 0
0.334706523075 0.942322420094 0
0.336954691924 0.941520863067 0
0.337496192276 0.94132689338 0
0.336694448247 0.941613959391 0
0.335830659526 0.941922379033 0
0.336292376065 0.941757632197 0
0.338283365355 0.941044294772 0
0.34106499083 0.940039718326 0
0.34374315975 0.939063703976 0
0.33984371496 0.940481924017 0
0.341121870058 0.94001907947 0
0.34210400286 0.939662094174 0
0.343409167801 0.93918589399 0
0.345163953241 0.93854240468 0
0.347395348561 0.937718759436 0
0.349694115231 0.936863931301 0
0.351786816076 0.936080144024 0
0.353206632064 0.935545335655 0
0.353115415993 0.935579768373 0
0.351277756479 0.93627129498 0
0.348654631277 0.937251272653 0
0.343068717541 0.939310308175 0
0.341565181949 0.93985808848 0
0.341526840187 0.939872021837 0
0.343300874634 0.93922548383 0
0.346196578021 0.938161995269 0
0.349044211629 0.937106257758 0
0.350752052716 0.936468364397 0
0.351019033448 0.936368323982 0
0.350264496168 0.936650832874 0
0.349024455153 0.93711361622 0
0.347867928065 0.937543548121 0
0.346848823498 0.937921048723 0
0.345912185293 0.938266891703 0
0.345048462201 0.938584870288 0
0.344356209022 0.938839071038 0
0.34389744618 0.939007213237 0
0.336910979472 0.941536505883 0
0.336395934925 0.941720645927 0
0.335729281444 0.941958517973 0
0.335038079927 0.942204587656 0
0.330530852948 0.94379518713 0
0.329385490201 0.944195529986 0
0.327801748038 0.944746534253 0
0.325590917815 0.94551073724 0
0.320885056428 0.947118144986 0
0.318428940552 0.94794673364 0
0.316842708395 0.94847809576 0
0.313468510621 0.949598595644 0
0.313060067172 0.949733328015 0
0.31153705819 0.950234003482 0
0.308008246098 0.951383687234 0
0.302655870723 0.95309990238 0
0.296203810806 0.955124757539 0
0.289445353653 0.957194539918 0
0.283159283152 0.959072896273 0
0.278168273004 0.960532358588 0
0.275034869857 0.961434251711 0
0.274091514808 0.961703614171 0
0.27554204629 0.961289020392 0
0.279130154609 0.960253277416 0
0.28369644729 0.958914138907 0
0.288112146663 0.957596674464 0
0.292132842842 0.956377750752 0
0.294869079936 0.95553766315 0
0.294594185147 0.955622449547 0
0.289981315081 0.957032307137 0
0.28167779194 0.959509052343 0
0.271731687866 0.962373051269 0
0.262762242888 0.964860613619 0
0.256909768669 0.966435393993 0
0.254899689487 0.96696750116 0
0.256299560373 0.966597400862 0
0.25978132822 0.965667469426 0
0.264101163295 0.964494984718 0
0.268374863788 0.963314555318 0
0.271812394807 0.962350259536 0
0.274302095881 0.961643572326 0
0.276267455249 0.961080794299 0
0.278164304082 0.960533507971 0
0.280158242105 0.9599538319 0
0.282190924552 0.95935826577 0
0.283871191652 0.958862423161 0
0.284458881324 0.958688241732 0
0.283810824327 0.958880292839 0
0.282419960972 0.959290866028 0
0.281355770253 0.959603527789 0
0.282167235859 0.959365233375 0
0.285522964244 0.958371867747 0
0.291200413861 0.956662071458 0
0.298459690317 0.95442224055 0
0.306435911003 0.951891292348 0
0.314513632306 0.949252956326 0
0.322726377742 0.94649230589 0
0.331491541476 0.943458190876 0
0.341566113209 0.939857750038 0
0.353082152126 0.935592322462 0
0.365317883127 0.930882830579 0
0.377417168917 0.926043347045 0
0.388262155394 0.92154896706 0
0.397066831732 0.917789698754 0
0.403681532735 0.914899568329 0
0.40849729002 0.912759532432 0
0.411920126074 0.911219956836 0
0.414154475757 0.910206608529 0
0.414990824173 0.909825596393 0
0.414630456397 0.909989881607 0
0.413785858047 0.910374243748 0
0.413737772563 0.910396098165 0
0.415670807134 0.909515134616 0
0.419583486455 0.907716749815 0
0.424823003347 0.905276430615 0
0.430660681616 0.90251392084 0
0.436569249172 0.899670656784 0
0.44215163607 0.896940316142 0
0.447021089915 0.8945234179 0
0.450935234475 0.892556672884 0
0.453759004647 0.891124438955 0
0.455460040256 0.890256228133 0
0.455771832803 0.890096644429 0
0.454462996186 0.890765617375 0
0.451965129987 0.892035605386 0
0.449484918134 0.893287920197 0
0.447884376757 0.894091485843 0
0.447627650853 0.894220043497 0
0.448866525133 0.893598815249 0
0.451567688464 0.892236864703 0
0.455120437416 0.890429889124 0
0.458774986126 0.888552481345 0
0.462230626153 0.886759746632 0
0.465231707193 0.885188939505 0
0.467453212569 0.884017813202 0
0.468753807586 0.883328856018 0
0.469038636244 0.883177647878 0
0.468706929082 0.883353731317 0
0.468586015283 0.883417877497 0
0.468738880812 0.883336777008 0
0.469012440268 0.883191559558 0
0.469297947142 0.883039884041 0
0.469391879943 0.882989956366 0
0.469426036877 0.882971797908 0
0.46987128343 0.882734941535 0
0.470986842191 0.882140235157 0
0.472958469092 0.88108472153 0
0.475824043355 0.879540493534 0
0.479295804218 0.877653423658 0
0.483183193377 0.875519275423 0
0.487434374992 0.873159624626 0
0.491970392723 0.870611930015 0
0.496719884537 0.867910914959 0
0.500983292945 0.865456954556 0
0.503212216366 0.864162869661 0
0.502086763842 0.864817253282 0
0.497860830632 0.867256936163 0
0.491658479539 0.870788114008 0
0.484947053185 0.874543512701 0
0.478994207375 0.877818061617 0
0.474547025425 0.880230152097 0
0.472045593314 0.881574136322 0
0.471421370563 0.881908096899 0
0.472434658064 0.881365698141 0
0.474776297728 0.880106508961 0
0.477956220948 0.878383658123 0
0.481442300218 0.87647778726 0
0.484436398455 0.874826483282 0
0.486433591848 0.873717552028 0
0.487650552399 0.873038910213 0
0.48808084541 0.87279842366 0
0.487459448314 0.873145627172 0
0.485663765632 0.8741457011 0
0.482573068298 0.875855715146 0
0.478425094924 0.878128366782 0
0.47388674521 0.880585800882 0
0.469490000556 0.882937789076 0
0.465668539948 0.884959214259 0
0.46279130148 0.886467264638 0
0.461166841453 0.887313441994 0
0.460537310204 0.887640347162 0
0.460643621361 0.887585181321 0
0.461315172689 0.88723633348 0
0.462215395865 0.886767685375 0
0.463185467794 0.88626137365 0
0.464103403835 0.885781028555 0
0.464904541527 0.885360811911 0
0.465476713368 0.885060127512 0
0.465733032427 0.884925275097 0
0.465941905276 0.884815314576 0
0.466201811416 0.884678399777 0
0.466443291548 0.884551104103 0
0.466944278913 0.884286741047 0
0.468021805306 0.883716917207 0
0.469932769711 0.882702210234 0
0.472654277818 0.881247941081 0
0.475524574102 0.879702438001 0
0.478027998473 0.878344597909 0
0.480436064667 0.877029753068 0
0.483326331898 0.875440264606 0
0.486739205719 0.873547334502 0
0.490521694267 0.871428980154 0
0.494532867523 0.86915892847 0
0.498532811184 0.866870830155 0
0.501996083874 0.864869892976 0
0.504085851676 0.863653549833 0
0.522304241346 0.852759215413 0
0.520660846283 0.8537635991 0
0.518100740992 0.855319602361 0
0.515284804732 0.85701900213 0
0.521576789018 0.853204344315 0
0.51959303555 0.854413879457 0
0.518305627983 0.855195460699 0
0.517381481523 0.85575487295 0
0.516872348584 0.856062483274 0
0.516852633609 0.856074386448 0
0.517317971672 0.8557932672 0
0.518231212281 0.855240557164 0
0.519203218146 0.854650816572 0
0.520200799564 0.854043984894 0
0.521335361435 0.853351885752 0
0.522526328521 0.85262315005 0
0.523546349669 0.851997194684 0
0.524144922078 0.851629086316 0
0.524175313809 0.851610380628 0
0.523682095281 0.85191376505 0
0.522966819887 0.852353040293 0
0.521637499058 0.853167228377 0
0.519611110565 0.854402887271 0
0.517368755118 0.855762567087 0
0.515239350309 0.857046330074 0
0.513733525503 0.857949803179 0
0.513089539443 0.858335088712 0
0.512875776333 0.858462834403 0
0.512596023684 0.858629906597 0
0.512348978232 0.858777342799 0
0.51234957316 0.858776987863 0
0.512946777006 0.858420412129 0
0.513957897206 0.857815411321 0
0.514811369428 0.857303478302 0
0.515573903619 0.856845114304 0
0.516405255941 0.856344330066 0
0.517242507606 0.855838879886 0
0.517808892353 0.855496318519 0
0.51802743363 0.855364003221 0
0.518405648504 0.855134833579 0
0.519630906753 0.854390847767 0
0.522267757155 0.852781560446 0
0.526711507592 0.850044109308 0
0.532623396534 0.84635236011 0
0.53415765964 0.845384879595 0
0.540961238058 0.841047524768 0
0.546146977249 0.837689369183 0
0.5488362796 0.8359298644 0
0.549113044457 0.83574808669 0
0.54670422508 0.837325796975 0
0.542489426216 0.840062630072 0
0.537838215849 0.843048073109 0
0.534198336811 0.845359176296 0
0.511096440961 0.859523372595 0
0.512336413199 0.858784839008 0
0.515593669686 0.856833220516 0
0.520394937712 0.853925704499 0
0.525564405449 0.850753816168 0
0.529779237945 0.84813557822 0
0.53279461535 0.846244585125 0
0.53434959168 0.845263576567 0
0.533454428376 0.845828808238 0
0.530113576561 0.84792664538 0
0.525196022617 0.850981279364 0
0.519667041289 0.854368870101 0
0.514722426089 0.857356882565 0
0.51115646335 0.85948767878 0
0.509126632364 0.860691624345 0
0.508649276214 0.860973817144 0
0.509184906328 0.860657150768 0
0.510325200684 0.859981505352 0
0.511851280441 0.859074075218 0
0.513677725125 0.857983213536 0
0.515772766605 0.856725424642 0
0.518200747433 0.855259016532 0
0.520833618856 0.853658211153 0
0.523049383667 0.852302377238 0
0.524331892973 0.851513984625 0
0.524831204553 0.851206324417 0
0.525086506945 0.851048858894 0
0.525364217125 0.850877452613 0
0.526024707655 0.850469286298 0
0.527111556882 0.849796097073 0
0.528761834176 0.84877024142 0
0.530765139552 0.847518947656 0
0.532964938484 0.846137325939 0
0.535104861057 0.844785645991 0
0.537127665906 0.843500960591 0
0.539458266821 0.842012338602 0
0.542474466686 0.840072290338 0
0.546199491912 0.837655128937 0
0.550252116347 0.834998567936 0
0.553965072318 0.832539908144 0
0.556471090643 0.830866972071 0
0.557545245094 0.83014655313 0
0.557405198222 0.830240594644 0
0.556297638715 0.830983114847 0
0.555442073503 0.831555231469 0
0.554478141611 0.832198287955 0
0.552789704964 0.833320791824 0
0.550734892833 0.834680224886 0
0.547946361656 0.836513469556 0
0.54401340786 0.839076523369 0
0.538965122834 0.842328081194 0
0.533293262852 0.845930432008 0
0.528262742951 0.84908095869 0
0.524744153731 0.851259991498 0
0.523135597072 0.852249462937 0
0.523722018236 0.851889222619 0
0.525950989831 0.850514877175 0
0.528653295406 0.848837848624 0
0.530464162682 0.847707362308 0
0.530695094229 0.847562810039 0
0.529509597246 0.848303946958 0
0.527471843098 0.849572512938 0
0.524726160875 0.851271082613 0
0.521039270219 0.853532705225 0
0.516503811653 0.856284889828 0
0.511292227868 0.859406922081 0
0.505568200656 0.862786644823 0
0.499749956624 0.866169718274 0
0.494074359954 0.869419649442 0
0.488810678849 0.872389890039 0
0.484116363649 0.875003626534 0
0.479974350854 0.877282521496 0
0.476390108167 0.879234021658 0
0.473284417881 0.880909677431 0
0.470583174991 0.882355639986 0
0.468165505232 0.883640797899 0
0.466135627602 0.884713273711 0
0.46471957268 0.885457914736 0
0.464049699617 0.885809164711 0
0.463729341759 0.885976917076 0
0.463497326114 0.886098317731 0
0.462787974881 0.886469001322 0
0.461885586168 0.88693951614 0
0.460112622969 0.887860560102 0
0.457121570813 0.889404221655 0
0.452919064052 0.891551636989 0
0.448247042805 0.893909720619 0
0.443901931917 0.896075373414 0
0.440404831699 0.897799300633 0
0.438554061064 0.898704810004 0
0.439170686475 0.898403644328 0
0.442802638322 0.896619107255 0
0.44872965616 0.893667553222 0
0.454884892018 0.890550242835 0
0.458954725662 0.888459655692 0
0.459243488982 0.888310428751 0
0.455226690867 0.890375572397 0
0.448770263535 0.893647162233 0
0.442962263062 0.896540257603 0
0.438097761422 0.898927333791 0
0.433930256568 0.9009464648 0
0.430881985959 0.902408285742 0
0.429896702446 0.902878078827 0
0.431238898208 0.902237780561 0
0.433763537056 0.901026744287 0
0.435598687666 0.900140979683 0
0.436460499461 0.899723419952 0
0.436493565655 0.899707378619 0
0.436999073428 0.89946195574 0
0.436899209616 0.899510467219 0
0.435403501945 0.900235408376 0
0.433454251625 0.901175572099 0
0.431806612254 0.901966213122 0
0.430787316897 0.902453482236 0
0.430399804982 0.902638359406 0
0.43020730669 0.902730122058 0
0.429947046578 0.902854106231 0
0.429861742948 0.902894723625 0
0.42995585038 0.902849913731 0
0.42989511348 0.902878835396 0
0.429182100411 0.903217982929 0
0.427775188576 0.903885163081 0
0.425757420524 0.904837343874 0
0.423191962299 0.906040044946 0
0.419726542408 0.907650609871 0
0.415112469363 0.909770101608 0
0.409546291696 0.912289337304 0
0.403706994124 0.914888333566 0
0.398502152671 0.917167397107 0
0.394606424167 0.918850243514 0
0.392058887091 0.919940122537 0
0.390373145472 0.92065672609 0
0.389442188378 0.921050911683 0
0.387367469424 0.921925400253 0
0.38738886564 0.921916409865 0
0.387202770249 0.921994584969 0
0.38639641594 0.922332808561 0
0.384703193744 0.923040331038 0
0.384031377659 0.923320042549 0
0.384740440228 0.92302480663 0
0.387008820585 0.922076012479 0
0.39074213079 0.920500183175 0
0.39493035757 0.918711060492 0
0.397262302904 0.917705106606 0
0.395268491617 0.918565631588 0
0.388592985117 0.92140951369 0
0.37915989185 0.92533117121 0
0.369701828055 0.929150449783 0
0.362846409275 0.931848959476 0
0.359600927157 0.933106196094 0
0.359382036408 0.933190522834 0
0.361308906664 0.932446177517 0
0.364035557733 0.931385050721 0
0.366329081246 0.930485359495 0
0.367991433172 0.929829180609 0
0.368671755096 0.929559646819 0
0.368524867677 0.929617890267 0
0.367128431275 0.930170261269 0
0.364759648993 0.931101712202 0
0.361677185491 0.932303391335 0
0.358470138519 0.933541193408 0
0.35551389959 0.934670994093 0
0.352803939312 0.935697269637 0
0.349873453969 0.936796971712 0
0.346741721651 0.937960648677 0
0.343562866371 0.939129680529 0
0.340469031917 0.94025573027 0
0.337478320393 0.941333300837 0
0.334679502002 0.942332017359 0
0.33214326466 0.9432289498 0
0.329968406883 0.943991975844 0
0.32817137765 0.944618201652 0
0.327041124275 0.945010107371 0
0.32667243818 0.945137618621 0
0.32682919021 0.945083425115 0
0.327308348301 0.944917586424 0
0.327877373886 0.944720290718 0
0.328473760967 0.944513095916 0
0.329153652979 0.944276375184 0
0.32974532857 0.94406992235 0
0.329869262555 0.944026625483 0
0.329337694454 0.944212202321 0
0.328265323445 0.944585558551 0
0.326840121539 0.945079644767 0
0.32452132629 0.945878379488 0
0.321590079268 0.946878989584 0
0.318254219352 0.948005407086 0
0.320757504753 0.947161350111 0
0.3185630177 0.947901684645 0
0.317325305739 0.948316745786 0
0.317017281724 0.948419761018 0
0.317700287581 0.948191187088 0
0.31926402838 0.947665806169 0
0.32123471186 0.946999609238 0
0.322888094084 0.946437149894 0
0.323446496931 0.946246460296 0
0.322238785055 0.94665842066 0
0.319079857008 0.947727832688 0
0.314344641669 0.949308930883 0
0.309281998503 0.950970370412 0
0.305158191259 0.952301674002 0
0.30283424338 0.953043241955 0
0.302932371274 0.953012055766 0
0.305392305941 0.952226621909 0
0.312482081132 0.949923654286 0
0.316032856684 0.948748245583 0
0.319265195056 0.947665413121 0
0.32122736967 0.947002099773 0
0.321195116837 0.947013039467 0
0.319255308465 0.947668743822 0
0.316225805107 0.948683951685 0
0.313085040822 0.949725095601 0
0.310714824841 0.95050318128 0
0.309459983062 0.950912466468 0
0.309479194921 0.950906214046 0
0.310679396559 0.950514761881 0
0.31275839061 0.949832716379 0
0.315182660984 0.949031027003 0
0.317211933774 0.948354674724 0
0.318475242402 0.947931178924 0
0.319079907832 0.947727815577 0
0.319381323966 0.94762628177 0
0.319281311463 0.947659983407 0
0.318570917228 0.9478990298 0
0.317023123622 0.948417808294 0
0.314791753941 0.949160761753 0
0.31217811198 0.95002359255 0
0.309451977142 0.950915071835 0
0.307350246808 0.95159646163 0
0.306538585493 0.951858232934 0
0.307285271187 0.951617445254 0
0.302211783809 0.953240807838 0
0.30433979198 0.952563536473 0
0.30665764695 0.951819881893 0
0.308850549398 0.951110581445 0
0.314242506983 0.949342744642 0
0.314488102795 0.949261414575 0
0.314832334284 0.949147302208 0
0.316093849033 0.948727926544 0
0.318451237701 0.947939243415 0
0.319961667388 0.947430488955 0
0.321166950935 0.947022591931 0
0.321765957389 0.946819237587 0
0.321588873469 0.946879399111 0
0.320247020465 0.947334073009 0
0.317155487205 0.948373553478 0
0.312056390023 0.950063581791 0
0.305749576951 0.952111966207 0
0.299891196662 0.953973411665 0
0.296015258081 0.955183211213 0
0.294962594624 0.955508800468 0
0.296580061325 0.955007993278 0
0.299648415416 0.954049698464 0
0.303255289333 0.952909350091 0
0.306597156991 0.951839368447 0
0.308851528518 0.951110263498 0
0.309679560686 0.950840980235 0
0.309547210941 0.950884075058 0
0.309093165137 0.951031763542 0
0.308749283205 0.951143459274 0
0.308771071116 0.951136386457 0
0.30916687819 0.951007803033 0
0.309842539481 0.950787884193 0
0.310248441374 0.95065551312 0
0.310211527911 0.950667559114 0
0.309721397782 0.950827353286 0
0.308669089317 0.951169487158 0
0.307190420842 0.951648068008 0
0.305565969002 0.952170908287 0
0.304046940008 0.952657051762 0
0.302865780525 0.953033220296 0
0.302042529251 0.953294451113 0
0.301622451224 0.953427447118 0
0.30170610127 0.953400979891 0
0.302544829251 0.953135156362 0
0.303995619459 0.952673429539 0
0.305777198873 0.952103095599 0
0.294625895692 0.955612673413 0
0.296378997302 0.955070410995 0
0.297903949372 0.954595850058 0
0.298589097505 0.954381763683 0
0.295104573632 0.955464960436 0
0.294250472329 0.955728339819 0
0.293367568242 0.955999722753 0
0.29541835039 0.955367991013 0
0.295324357865 0.955397050263 0
0.295622239725 0.95530492063 0
0.295240980473 0.955422819201 0
0.292292439301 0.956328986243 0
0.285978592683 0.958236006695 0
0.277554158083 0.960709992314 0
0.268921405309 0.963162124342 0
0.262029914097 0.965059751579 0
0.258249057714 0.966078373731 0
0.257665603978 0.966234152018 0
0.259972021469 0.965616149437 0
0.264250387257 0.964454111316 0
0.270108297097 0.962829947519 0
0.276316234072 0.961066771243 0
0.281964252277 0.959424911308 0
0.286095317739 0.958201163205 0
0.288482783037 0.957485082856 0
0.288784524394 0.957394118673 0
0.287355170171 0.957824099809 0
0.285200883844 0.95846776464 0
0.283424173029 0.958994649695 0
0.283013230172 0.959116005261 0
0.284206815314 0.958762997893 0
0.28634586167 0.958126321267 0
0.288769709133 0.957398587364 0
0.291466224647 0.956581120392 0
0.294513630403 0.955647278815 0
0.297668052112 0.954669435329 0
0.300309704476 0.953841748613 0
0.302207630134 0.953242124693 0
0.30306452214 0.952970039099 0
0.302934630434 0.953011337647 0
0.301869416456 0.953349283006 0
0.300219508202 0.953870141526 0
0.298280585191 0.9544782305 0
0.296490360378 0.955035845507 0
0.29502319538 0.955490091099 0
0.293943635809 0.955822754995 0
0.293114276101 0.956077413783 0
0.292448528793 0.956281265113 0
0.291871679362 0.956457486136 0
0.291580557027 0.956546276331 0
0.292272514391 0.956335075866 0
0.293789761768 0.955870062237 0
0.295356830752 0.955387011911 0
0.29607799625 0.955163766135 0
0.302968224263 0.953000658492 0
0.301633262064 0.953424026977 0
0.300309775435 0.953841726272 0
0.299650294502 0.954049108277 0
0.295834073704 0.955239342173 0
0.296973889426 0.954885599954 0
0.297450368297 0.954737282398 0
0.296357840498 0.955076976152 0
0.293223888108 0.956043802052 0
0.288850785231 0.957374129519 0
0.284786232134 0.958591050442 0
0.281861662594 0.95945505531 0
0.280197822898 0.959942279537 0
0.279720659849 0.960081430116 0
0.272061801613 0.962279780575 0
0.273490303728 0.961874759918 0
0.275478536858 0.961307222344 0
0.277919296863 0.960604426615 0
0.280444092472 0.959870361558 0
0.282652560246 0.959222357009 0
0.284176670259 0.958771933298 0
0.284752969077 0.95860093188 0
0.284268365613 0.958744750344 0
0.283252733348 0.959045300833 0
0.282507282624 0.959265153784 0
0.275094204841 0.961417275933 0
0.275652790106 0.961257270093 0
0.276955421678 0.960882768293 0
0.278811280533 0.960345911559 0
0.280715938652 0.959790894824 0
0.287929272374 0.957651676817 0
0.287847755776 0.957676181961 0
0.286298876652 0.958140361966 0
0.283712708197 0.958909327939 0
0.28084915269 0.95975192286 0
0.278222883094 0.960516541931 0
0.275925399643 0.961179053991 0
0.273915268261 0.961753828073 0
0.27232728304 0.962204682441 0
0.27098217287 0.962584366166 0
0.26959462819 0.962973902269 0
0.267746359862 0.963489432625 0
0.265672789508 0.96406325981 0
0.264216996777 0.964463259339 0
0.26378591302 0.964581252198 0
0.264250366208 0.964454117083 0
0.265154056559 0.964206060078 0
0.266356694677 0.963874530839 0
0.267415100361 0.963581425775 0
0.268055847675 0.963403374775 0
0.268093403968 0.963392924382 0
0.267356600074 0.963597658983 0
0.266204433813 0.9639165936 0
0.269665474527 0.962954065285 0
0.268378113607 0.963313649928 0
0.267464469982 0.963567723254 0
0.267822801506 0.963468186809 0
0.267807044008 0.963472566906 0
0.270927981446 0.962599620231 0
0.273168155468 0.961966298182 0
0.265961397505 0.96398367986 0
0.262918807034 0.964817962575 0
0.257618701653 0.966246658239 0
0.251911696531 0.967750224568 0
0.248042559983 0.968749135967 0
0.247406937361 0.96891166127 0
0.250086565541 0.968223481298 0
0.255287335684 0.966865231684 0
0.262403284769 0.964958297618 0
0.271037128595 0.962568893598 0
0.280605000467 0.959823334636 0
0.29019036793 0.956968939078 0
0.298354809016 0.954455031909 0
0.30343474601 0.952852220921 0
0.304015660916 0.95266703413 0
0.299873010039 0.953979128624 0
0.292095758497 0.95638907766 0
0.282640108292 0.959226026119 0
0.273833936934 0.961776988175 0
0.267353953296 0.963598393345 0
0.263609230326 0.964629552568 0
0.26246786878 0.964940732821 0
0.262910785808 0.964820148373 0
0.264171191034 0.964475806761 0
0.265760990638 0.964038949345 0
0.267504479035 0.963556616757 0
0.268998867328 0.963140493062 0
0.270448294401 0.962734501332 0
0.271942393887 0.962313532279 0
0.27318380324 0.96196185457 0
0.274010257636 0.96172676926 0
0.274351008325 0.961629619048 0
0.273840280549 0.96177518202 0
0.27254772053 0.962142266005 0
0.270793983111 0.962637324599 0
0.269125630572 0.963105079921 0
0.267778392875 0.963480530322 0
0.267167769014 0.963650031495 0
0.267558482822 0.96354162249 0
0.268953881005 0.963153056317 0
0.270718097965 0.962658668186 0
0.272352810164 0.96219745728 0
0.27388624172 0.961762094593 0
0.275508424804 0.961298656954 0
0.276897990129 0.960899319941 0
0.278127393194 0.960544196357 0
0.280148223512 0.959956755726 0
0.283798450469 0.958883955185 0
0.288440886534 0.957497704945 0
0.292078624683 0.95639431042 0
0.293064693585 0.956092613387 0
0.290506110033 0.956873136854 0
0.292791487486 0.956176314733 0
0.287949038164 0.957645733777 0
0.284688033953 0.958620218504 0
0.282889610539 0.959152473932 0
0.282644679303 0.959224679239 0
0.283549892211 0.958957485307 0
0.284835637451 0.958576371312 0
0.285641855801 0.958336438947 0
0.286053432409 0.958213668138 0
0.286769441866 0.957999627981 0
0.288418111934 0.957504565372 0
0.290900422182 0.956753335178 0
0.293903305606 0.955835156789 0
0.2971571119 0.954828597627 0
0.300241323032 0.953863275288 0
0.302695226072 0.953087404236 0
0.304299434569 0.952576429543 0
0.305161185951 0.95230071437 0
0.305271730257 0.952265283787 0
0.30506886877 0.952330292129 0
0.304979004452 0.952359074532 0
0.305456647742 0.952205984202 0
0.306417322379 0.951897276257 0
0.307643613077 0.951501659133 0
0.30885465867 0.951109247047 0
0.309683687544 0.950839636148 0
0.309734720445 0.950823013474 0
0.3090866045 0.951033895778 0
0.307928440561 0.951409520393 0
0.306776831306 0.951781474801 0
0.306068641425 0.952009446768 0
0.30583877365 0.952083318062 0
0.305869768993 0.952073360837 0
0.305824494091 0.952087904982 0
0.305612963983 0.952155825611 0
0.305338730052 0.952243802779 0
0.305156091892 0.952302346727 0
0.305079567189 0.952326864938 0
0.305231639582 0.952278134894 0
0.300449664273 0.953797672066 0
0.301108417095 0.953589912465 0
0.301311638181 0.953525718949 0
0.300844916803 0.953673076077 0
0.299774620842 0.954010050628 0
0.298723232886 0.954339787567 0
0.297983254519 0.954571097418 0
0.297898939955 0.95459741335 0
0.295800006154 0.955249892101 0
0.296592205867 0.955004221676 0
0.297220132316 0.954808982439 0
0.297043306345 0.9548640082 0
0.295613671264 0.955307572126 0
0.292179258063 0.956363571639 0
0.286176405954 0.95817694852 0
0.278500807531 0.960435994851 0
0.270627308292 0.962684195366 0
0.264546542249 0.964372919043 0
0.261414423441 0.965226656914 0
0.259420261602 0.96576453024 0
0.262785585685 0.964854256329 0
0.268419529527 0.963302110539 0
0.275757982155 0.961227098701 0
0.28425069906 0.95874998831 0
0.293332476612 0.956010490614 0
0.302053060223 0.953291114408 0
0.30902135813 0.951055098414 0
0.312998375458 0.949753661199 0
0.312844270747 0.949804433692 0
0.308635146978 0.951180501298 0
0.301548112544 0.953450961414 0
0.293511255687 0.955955617581 0
0.286104348924 0.958198466669 0
0.280424071986 0.959876210691 0
0.276791101427 0.960930115134 0
0.274834476225 0.961491555178 0
0.274209279155 0.961670042803 0
0.274680042357 0.961535685417 0
0.275809512475 0.961212314126 0
0.277362406496 0.960765369621 0
0.279199422996 0.960233139503 0
0.281099715924 0.959678565827 0
0.282904425493 0.959148104328 0
0.28422242497 0.958758370573 0
0.284938819647 0.958545705253 0
0.284585294237 0.958650723832 0
0.282981787226 0.959125282796 0
0.280591660051 0.959827234616 0
0.278159392567 0.9605349303 0
0.276003687912 0.961156576349 0
0.274080881203 0.961706644751 0
0.2730669182 0.961995040624 0
0.27328722132 0.961932479264 0
0.274476770119 0.961593730567 0
0.27609519911 0.961130293472 0
0.277747191506 0.960654202932 0
0.279214966664 0.960228619856 0
0.280654082169 0.959808984206 0
0.282445444393 0.959283363215 0
0.284720791961 0.958610489524 0
0.287346765104 0.957826621359 0
0.290114057926 0.956992075931 0
0.292482480187 0.956270881489 0
0.294071705729 0.955783360333 0
0.294299768012 0.95571316123 0
0.293490813356 0.955961893841 0
0.292470228022 0.956274628818 0
0.291524487665 0.956563365957 0
0.290588418893 0.956848144067 0
0.289820539071 0.957081007613 0
0.289119360884 0.95729305605 0
0.288141987609 0.957587695711 0
0.287211106505 0.957867308295 0
0.286824348066 0.95798319054 0
0.287253564975 0.957854576337 0
0.288760666497 0.95740131475 0
0.29132113139 0.956625317669 0
0.294678472406 0.95559646185 0
0.298209795241 0.954500349933 0
0.30130756793 0.953527005128 0
0.303428363736 0.952854253325 0
0.304456994548 0.95252608283 0
0.304396599158 0.952545384966 0
0.304053880937 0.95265483649 0
0.30387893857 0.952710654236 0
0.304068437077 0.95265019056 0
0.304829538408 0.952406925906 0
0.305573399621 0.952168523657 0
0.305886088394 0.952068117798 0
0.305624003529 0.952152282183 0
0.304509218269 0.952509388924 0
0.302833578533 0.953043453213 0
0.301129080001 0.953583387637 0
0.299681296882 0.954039370414 0
0.298625288683 0.954370440112 0
0.298284013456 0.954477159138 0
0.298690084722 0.954350162827 0
0.299565598823 0.954075705592 0
0.300602630972 0.953749473527 0
0.301494889929 0.953467792506 0
0.302075271583 0.95328407639 0
0.302314841579 0.953208128669 0
0.302387388846 0.953185116893 0
0.302300405561 0.953212707006 0
0.301810885745 0.953367814249 0
0.300682525116 0.953724288822 0
0.299022827728 0.954245958072 0
0.297081687544 0.954852067561 0
0.295023785043 0.95548990903 0
0.292774656943 0.956181468264 0
0.290268065073 0.956945374825 0
0.28788251408 0.957665734005 0
0.285563744108 0.95835971746 0
0.283434427143 0.958991619103 0
0.282096324222 0.959386086964 0
0.282512064228 0.95926374557 0
0.284171725287 0.958773398957 0
0.284903792004 0.958556116929 0
0.283577886247 0.958949207431 0
0.280400988943 0.95988295401 0
0.27715063778 0.96082647964 0
0.275310053237 0.961355488145 0
0.275274872874 0.961365562294 0
0.276610164563 0.960982214643 0
0.278581746042 0.960412521145 0
0.280511193322 0.959850754243 0
0.282189392079 0.959358716538 0
0.283427445141 0.958993682639 0
0.283982854909 0.958829358185 0
0.283944245128 0.958840792655 0
0.283637481664 0.95893158202 0
0.283614483351 0.958938384274 0
0.283618774884 0.958937115005 0
0.283466128409 0.958982249077 0
0.283203115246 0.959059954077 0
0.282746700511 0.959194611823 0
0.281952820987 0.959428270762 0
0.280672156516 0.95980369897 0
0.279162858131 0.960243770425 0
0.277756116571 0.960651622446 0
0.276358991076 0.961054477151 0
0.275127905503 0.961407632388 0
0.274237129562 0.96166210114 0
0.273714038892 0.961811117067 0
0.273591811388 0.961845892408 0
0.273665152443 0.961825027923 0
0.273794841969 0.961788118304 0
0.27384919094 0.961772644975 0
0.273533340191 0.961862522299 0
0.27281197585 0.962067370735 0
0.272238797594 0.962229721576 0
0.271866990137 0.962334837608 0
0.271574523331 0.962417413744 0
0.271677979332 0.962388214571 0
0.27194183962 0.96231368891 0
0.272209905193 0.962237895489 0
0.272220600511 0.962234869799 0
0.27235284536 0.962197447317 0
0.273139348149 0.961974478088 0
0.274212435116 0.961669142911 0
0.275301054661 0.961358065084 0
0.277077561582 0.960847555478 0
0.279020520163 0.960285139595 0
0.281492442745 0.959563444842 0
0.284979700233 0.958533552076 0
0.289843876472 0.957073940337 0
0.296542250634 0.955019734659 0
0.304903580316 0.952383224711 0
0.314337121565 0.949311420982 0
0.323834015271 0.946113909925 0
0.332135800898 0.943231578013 0
0.338723575811 0.940885933145 0
0.343191009021 0.939265634061 0
0.345451492512 0.938436607513 0
0.345977313413 0.938242878259 0
0.345073936793 0.938575504766 0
0.343718331291 0.939072792032 0
0.342401250946 0.939553821423 0
0.341521781252 0.939873860117 0
0.34086896037 0.940110818923 0
0.340324014461 0.940308228817 0
0.339835930064 0.940484737057 0
0.339500212039 0.940605978094 0
0.339254310389 0.940694696957 0
0.338774501142 0.940867598218 0
0.338265072828 0.941050870307 0
0.338278089641 0.941046191251 0
0.338854827667 0.940838671488 0
0.340228036529 0.940342960392 0
0.34259199799 0.939484285613 0
0.345198921375 0.938529543851 0
0.347364904517 0.937730037436 0
0.349131110576 0.937073885896 0
0.35052846054 0.936552079893 0
0.351437521924 0.936211337351 0
0.351945440925 0.936020516128 0
0.352496935628 0.935812967624 0
0.353465050945 0.935447731175 0
0.354794315115 0.934944380143 0
0.356492739445 0.934298093075 0
0.358336460935 0.933592513233 0
0.355653494194 0.934617885591 0
0.356806807684 0.934178196058 0
0.357055866423 0.934083030706 0
0.352962929852 0.935637306947 0
0.351776640231 0.936083968129 0
0.350449222871 0.936581732786 0
0.34889723082 0.937160990613 0
0.351224920348 0.936291116762 0
0.348372657517 0.937356117756 0
0.34458378868 0.938755565938 0
0.339560462185 0.94058422936 0
0.317073782887 0.948400873157 0
0.312351160961 0.949966711125 0
0.309355777087 0.950946372401 0
0.309275922921 0.950972346339 0
0.313298263581 0.949654778347 0
0.321011081248 0.947075438239 0
0.331382736876 0.943496413189 0
0.342717220071 0.939438612719 0
0.353280188864 0.93551756165 0
0.361440187108 0.932395297684 0
0.36571500846 0.930726883993 0
0.365276536486 0.930899055694 0
0.360999808179 0.932565889626 0
0.354602390591 0.935017189461 0
0.347220285661 0.937783596159 0
0.339327552348 0.940668279585 0
0.331498273583 0.943455825469 0
0.325041989031 0.945699585157 0
0.320954680665 0.947094553336 0
0.319601518593 0.947552040425 0
0.321226246196 0.94700248086 0
0.325913601778 0.945399557952 0
0.332901842231 0.942961485661 0
0.340770730938 0.940146429518 0
0.348414236975 0.937340663512 0
0.355235512149 0.934776834816 0
0.36095918791 0.93258161287 0
0.365238382582 0.930914026046 0
0.36799753317 0.929826766436 0
0.369217273002 0.929343104196 0
0.369037051952 0.929414683705 0
0.367673215276 0.929955056317 0
0.365629634195 0.930760425995 0
0.363608105757 0.931552008976 0
0.36215622443 0.932117411653 0
0.361573176811 0.932343733722 0
0.362026042541 0.93216798085 0
0.363915835129 0.931431835907 0
0.366940444942 0.930244435547 0
0.370664861042 0.928766688027 0
0.374720226852 0.927137935578 0
0.379006226219 0.925394121706 0
0.383444437081 0.923563946715 0
0.387761505698 0.921759738055 0
0.391576516303 0.920145549291 0
0.394502251066 0.91889497436 0
0.396185217133 0.918170612536 0
0.396785226362 0.917911479469 0
0.39642369773 0.918067672821 0
0.395066617627 0.91865247381 0
0.392847791804 0.919603508298 0
0.390160524929 0.92074685163 0
0.387745657129 0.921766404995 0
0.386787874062 0.922168715843 0
0.388368761143 0.921504045226 0
0.393681081618 0.919247086466 0
0.40287505997 0.915254984174 0
0.414165818943 0.910201447164 0
0.425435101725 0.904988935966 0
0.434913347726 0.900472309385 0
0.441400020667 0.897310437783 0
0.444486218121 0.895785689716 0
0.444398950441 0.895828986384 0
0.441871965473 0.897078127104 0
0.437673521193 0.899133966017 0
0.432712920236 0.901531767971 0
0.4278226052 0.903862721037 0
0.423562441736 0.905866909624 0
0.419878149118 0.90758048673 0
0.416678574126 0.909053885017 0
0.413985251129 0.910283588695 0
0.411792436462 0.911277668591 0
0.410620433075 0.911806371957 0
0.410650886464 0.911792657048 0
0.412060892348 0.91115630986 0
0.415244797282 0.909709711024 0
0.419801946406 0.907615736859 0
0.42502476903 0.905181719718 0
0.429931702834 0.902861412897 0
0.433921742688 0.90095056536 0
0.436588969121 0.899661087322 0
0.437627858286 0.899156192022 0
0.437455045717 0.899240281002 0
0.436334806178 0.89978438357 0
0.43477259514 0.900540277009 0
0.433122756071 0.901334942279 0
0.431422807831 0.902149855004 0
0.429629703985 0.903005159151 0
0.42771087137 0.903915599219 0
0.42582317389 0.904806401712 0
0.423803960036 0.905753942005 0
0.421619865954 0.906772677485 0
0.419398295354 0.907802329725 0
0.416883335276 0.908960001743 0
0.418928487352 0.908019230239 0
0.415688331539 0.909507125328 0
0.411991619313 0.911187634692 0
0.407891301095 0.913030495926 0
0.397907870374 0.91742537936 0
0.39390378658 0.919151677863 0
0.391506500473 0.920175342034 0
0.392361424096 0.919811128918 0
0.397673915871 0.917526815213 0
0.407022396263 0.913418178569 0
0.419086625064 0.907946254297 0
0.431378504057 0.902171040456 0
0.440990547031 0.897511747795 0
0.445956318407 0.895054725742 0
0.445459916846 0.895301883436 0
0.441026231457 0.897494213445 0
0.43448066706 0.900681158874 0
0.426863188692 0.90431621579 0
0.418663474024 0.908141451272 0
0.410342397907 0.911931530588 0
0.402125409813 0.915584597283 0
0.395017430504 0.918673625178 0
0.390230673008 0.920717123683 0
0.388888082754 0.921285004269 0
0.392158650219 0.919897599224 0
0.400085611269 0.91647777041 0
0.410806977677 0.911722341007 0
0.422094896932 0.906551652133 0
0.43256873997 0.901600956743 0
0.441287242807 0.897365906047 0
0.447709492454 0.894179070638 0
0.451929306927 0.892053754849 0
0.454655590116 0.890667330925 0
0.45639870314 0.889775378268 0
0.45700945519 0.889461836094 0
0.456675716744 0.889633233269 0
0.455529949336 0.890220458795 0
0.45357326923 0.891218990731 0
0.451370834368 0.892336466745 0
0.449417646764 0.893321766654 0
0.448248387595 0.893909046278 0
0.448530936531 0.893767306951 0
0.450605511345 0.89272317834 0
0.454297520528 0.890850022642 0
0.459235080138 0.88831477595 0
0.465214834491 0.885197807142 0
0.471741292922 0.881737008723 0
0.478203751338 0.878248923829 0
0.484058454795 0.875035663468 0
0.48886420573 0.872359896118 0
0.492656702472 0.870223749107 0
0.495138849608 0.86881385786 0
0.496241401374 0.868184583808 0
0.495513833572 0.868600046477 0
0.492688384256 0.870205812448 0
0.488312174178 0.872669021193 0
0.483334404675 0.875435807617 0
0.478912350728 0.877862722936 0
0.47670582469 0.879062885525 0
0.477703476498 0.87852113722 0
0.48184494334 0.876256498166 0
0.488135885799 0.872767642042 0
0.495516118247 0.868598743124 0
0.503015389389 0.864277454315 0
0.509451211705 0.860499542645 0
0.51366615892 0.85799013816 0
0.515397881184 0.856951004475 0
0.515761740256 0.856732062718 0
0.515539403162 0.856865872694 0
0.51556549807 0.856850171967 0
0.516005684359 0.856585158469 0
0.516744360724 0.856139746572 0
0.517721437078 0.855549246735 0
0.519042618227 0.854748360901 0
0.521102455312 0.853494130658 0
0.523948107715 0.851750186629 0
0.527502210355 0.849553658147 0
0.531735265671 0.846910625297 0
0.536782580808 0.843720605972 0
0.54275569897 0.839890618614 0
0.549463863968 0.835517481681 0
0.556349199841 0.830948595183 0
0.563179079901 0.826334873984 0
0.570066498772 0.821598555852 0
0.576820175341 0.816871155887 0
0.58327573155 0.8122742277 0
0.58922147483 0.807971567321 0
0.594517407152 0.804082739893 0
0.600248658194 0.799813445959 0
0.603778147576 0.797152399802 0
0.606485129742 0.795094829188 0
0.608367607988 0.793655374549 0
0.610354095981 0.792128700098 0
0.611307044959 0.791393515758 0
0.612094343378 0.790784746189 0
0.612897624549 0.790162326248 0
0.613536079961 0.789666688284 0
0.614437898931 0.788965188305 0
0.615545959826 0.788100990573 0
0.616974290735 0.786983306413 0
0.618503939093 0.785781698264 0
0.620629462419 0.784103992069 0
0.622726213397 0.782439814393 0
0.624426000745 0.781083970898 0
0.62586881244 0.779928349026 0
0.62703154553 0.778993864488 0
0.627809467013 0.778367055527 0
0.628038184562 0.778182522762 0
0.627754247979 0.778411590448 0
0.627261589467 0.778808640411 0
0.626710317035 0.77925232019 0
0.626039240396 0.779791555151 0
0.625750453349 0.78002331384 0
0.62723482917 0.77883019271 0
0.629683996847 0.776851378396 0
0.632361654123 0.774673310754 0
0.62855088186 0.77776846742 0
0.629323212156 0.777143676962 0
0.628742702611 0.777613409036 0
0.627228735266 0.778835100426 0
0.626866531155 0.779126659868 0
0.624082514474 0.781358442156 0
0.620828328562 0.783946545662 0
0.617112634968 0.786874828523 0
0.613030906694 0.79005892656 0
0.609378592503 0.792879392467 0
0.606008436435 0.795458216985 0
0.603161944203 0.797618749194 0
0.60154433191 0.798839418623 0
0.60230223212 0.79826813865 0
0.605557454446 0.795801589195 0
0.610250094012 0.792208825221 0
0.61468636468 0.78877162289 0
0.617682199025 0.786427810424 0
0.618687620479 0.785637084324 0
0.617721188243 0.786397185648 0
0.615335011602 0.788265706153 0
0.612206801605 0.790697686899 0
0.608963308718 0.793198391725 0
0.606179486634 0.795327875775 0
0.603851808176 0.797096602529 0
0.6017538364 0.798681613897 0
0.599958003435 0.800031495701 0
0.598511413482 0.801114278947 0
0.597503042667 0.801866643528 0
0.597218667199 0.802078464708 0
0.597913315498 0.801560769468 0
0.599611674457 0.800291096948 0
0.601811681616 0.798638028064 0
0.604367029247 0.796706027314 0
0.60726198101 0.794501659168 0
0.610168244219 0.792271868582 0
0.612509470831 0.790463249078 0
0.613837773692 0.789432193155 0
0.61443684524 0.788966008907 0
0.614636896386 0.788810170828 0
0.614691449263 0.78876766047 0
0.614783454967 0.788695951238 0
0.614590096249 0.788846635027 0
0.614156017146 0.789184634039 0
0.613409486455 0.789765029567 0
0.612350177597 0.79058665559 0
0.61042026553 0.792077710474 0
0.607972936914 0.793957749493 0
0.606192765664 0.795317754647 0
0.606241742673 0.79528042189 0
0.6077192648 0.794151934576 0
0.609028351823 0.793148451852 0
0.609704623763 0.792628709902 0
0.609317611885 0.792926256247 0
0.607818380327 0.794076077298 0
0.605754872666 0.795651327053 0
0.603617367051 0.797274152468 0
0.601661814069 0.798750938335 0
0.600047645413 0.799964263723 0
0.598916810842 0.80081124723 0
0.598436824612 0.801169998782 0
0.598967835787 0.800773083771 0
0.600525620931 0.799605514367 0
0.602769690869 0.797915220916 0
0.605326744227 0.795977093089 0
0.607469872812 0.794342717991 0
0.608711497757 0.793391651392 0
0.608585067998 0.793488635716 0
0.607372995314 0.794416795242 0
0.605594158853 0.795773657998 0
0.603688225933 0.797220500157 0
0.602117874723 0.798407204964 0
0.601097800919 0.799175471177 0
0.600492279351 0.799630553718 0
0.600293104665 0.799780087581 0
0.600111701551 0.799916211651 0
0.599712109706 0.800215836804 0
0.598654891158 0.801007066943 0
0.596928475437 0.802294456675 0
0.595061452308 0.803680202554 0
0.593365245817 0.804933341996 0
0.592253997316 0.805751328056 0
0.59179620459 0.806087620692 0
0.591662429235 0.806185815946 0
0.591490980818 0.806311614458 0
0.590926328445 0.806725526032 0
0.589602570456 0.807693511743 0
0.587459124377 0.809253839772 0
0.584451563128 0.811428598435 0
0.581811589566 0.813323597498 0
0.586267641137 0.810117431583 0
0.586105054898 0.81023506751 0
0.586849422508 0.809696088234 0
0.588012935051 0.808851524208 0
0.589344722507 0.807881673299 0
0.590435989075 0.807084470675 0
0.591106702124 0.806593371349 0
0.591712388618 0.806149148208 0
0.592826023243 0.805330557079 0
0.594744160266 0.803915035206 0
0.596924043978 0.80229775378 0
0.59877870179 0.800914518712 0
0.599808879798 0.800143304487 0
0.600107792457 0.799919144309 0
0.603182881 0.797602916286 0
0.601539135746 0.798843331428 0
0.598887308797 0.800833310597 0
0.595414993439 0.803418312953 0
0.598642355517 0.80101643565 0
0.595314134385 0.803493050002 0
0.592948249949 0.805240568329 0
0.592280916984 0.805731540512 0
0.583429949486 0.8121634651 0
0.58539869976 0.810745559543 0
0.587307228398 0.809364083384 0
0.588226810318 0.80869599951 0
0.587957378851 0.808891909129 0
0.586805097782 0.809728211943 0
0.585146973685 0.810927258875 0
0.583404463256 0.812181772913 0
0.582178505842 0.813060998533 0
0.581552379513 0.813508961157 0
0.581259205574 0.813718462329 0
0.580696507447 0.81412011782 0
0.579812348102 0.814750048167 0
0.578930826895 0.815376659998 0
0.578256625357 0.815854935163 0
0.577999658709 0.816037005614 0
0.578243070059 0.815864542635 0
0.578891369803 0.815404673747 0
0.579750524406 0.814794041124 0
0.58057235423 0.814208659684 0
0.581430310327 0.813596210803 0
0.582287619411 0.81298285854 0
0.582956524522 0.812503348004 0
0.583229018897 0.812307768963 0
0.585062228648 0.810988402266 0
0.583797567305 0.811899255085 0
0.582236300086 0.81301961284 0
0.580992192629 0.813909130127 0
0.585232668838 0.810865416284 0
0.584871239229 0.811126151424 0
0.584571766714 0.811342005298 0
0.584173246247 0.811628990592 0
0.583602688952 0.812039347229 0
0.582839042629 0.812587626282 0
0.582846088868 0.81258257223 0
0.584537004039 0.811367050667 0
0.593204924462 0.805051499964 0
0.595222888378 0.803560646841 0
0.595830435163 0.803110261754 0
0.594922493224 0.803783072138 0
0.602658139496 0.797999478007 0
0.60074077306 0.799443883949 0
0.599471902746 0.800395800725 0
0.598813440856 0.800888545961 0
0.598274524505 0.801291203826 0
0.597350507309 0.80198028119 0
0.59610456445 0.80290681168 0
0.594766449595 0.803898544865 0
0.593729463152 0.804664728061 0
0.5935289031 0.804812674593 0
0.594217015953 0.804304754401 0
0.594859488889 0.803829701167 0
0.595177911323 0.803593960824 0
0.595097715656 0.803653351154 0
0.59468316341 0.803960157692 0
0.594150157454 0.804354144887 0
0.593571439858 0.804781303079 0
0.59292143845 0.805260310599 0
0.592306430021 0.805712785648 0
0.591867929958 0.806034957981 0
0.592283706072 0.805729490289 0
0.593578626446 0.804776002517 0
0.595599711581 0.803281385048 0
0.597900566496 0.801570279254 0
0.600225732498 0.799830650855 0
0.602261978343 0.798298508982 0
0.603757895849 0.797167738434 0
0.604635371323 0.796502396572 0
0.605026013287 0.796205704103 0
0.605451791641 0.7958819812 0
0.606172509907 0.795333193218 0
0.607082074352 0.79463913508 0
0.607825230311 0.794070833992 0
0.608445825051 0.79359541202 0
0.609137084145 0.793064948614 0
0.610113334875 0.792314153987 0
0.611442737926 0.791288681985 0
0.612859418303 0.790191959841 0
0.618510031156 0.785776903045 0
0.619594940529 0.784921722002 0
0.620284404985 0.784376986489 0
0.620449376311 0.784246499154 0
0.621167080131 0.783678160064 0
0.623095593668 0.782145690489 0
0.626845299444 0.779143741914 0
0.63146781034 0.775402092146 0
0.635922924563 0.771752573054 0
0.64299231926 0.76587262477 0
0.644649990197 0.764477854577 0
0.644461186249 0.764637024619 0
0.642732054235 0.766091056245 0
0.642727380069 0.766094977734 0
0.639087955298 0.769133658991 0
0.635490292967 0.772108857315 0
0.632614362113 0.774466957881 0
0.630576852826 0.776126814818 0
0.629448295284 0.777042369221 0
0.629345689362 0.777125474606 0
0.629805713623 0.776752703946 0
0.630251301452 0.776391201018 0
0.630232619864 0.776406365803 0
0.629533345528 0.776973466 0
0.628143940286 0.778097159924 0
0.626461067489 0.779452712434 0
0.624808227441 0.78077825208 0
0.62345483201 0.781859368713 0
0.622302521606 0.782776833844 0
0.621325660198 0.783552438564 0
0.620447553102 0.784247941566 0
0.619772649071 0.784781411263 0
0.619164329472 0.785261442521 0
0.618478774628 0.785801505047 0
0.617863459774 0.786285409426 0
0.617380648104 0.786664563424 0
0.617108653131 0.786877951293 0
0.617325618442 0.786707748033 0
0.61797549669 0.78619735785 0
0.618844795655 0.785513283714 0
0.619592913274 0.784923322255 0
0.619908369111 0.784674208768 0
0.619528617738 0.784974070785 0
0.61823576907 0.785992705972 0
0.616745983482 0.787162239858 0
0.615123338153 0.788430896693 0
0.615505841254 0.788132323523 0
0.615388689583 0.788223801172 0
0.615894078403 0.787828968868 0
0.61647331273 0.787375802709 0
0.615327658982 0.788271445691 0
0.61263942751 0.790362531918 0
0.608561330403 0.793506841267 0
0.604741076834 0.796422143081 0
0.609731961159 0.792607680723 0
0.610775751875 0.791803625226 0
0.613377511488 0.789789863445 0
0.61557778774 0.788076130358 0
0.616348100245 0.787473821358 0
0.615123309926 0.788430918715 0
0.612737550423 0.790286463443 0
0.610125904629 0.792304474619 0
0.607768394095 0.794114336314 0
0.605948514242 0.795503864282 0
0.604587449999 0.796538772003 0
0.603623641284 0.797269402199 0
0.603278968578 0.797530241478 0
0.603523130071 0.797345490656 0
0.603942887264 0.797027596087 0
0.604612363058 0.796519861923 0
0.605246403768 0.796038184214 0
0.605607892898 0.795763206022 0
0.605327086249 0.795976832988 0
0.604335936554 0.796729612722 0
0.602991317284 0.797747749154 0
0.601972192388 0.798517050283 0
0.601433099617 0.798923166947 0
0.601419286215 0.798933565554 0
0.594849398477 0.803837168294 0
0.596117610342 0.802897125814 0
0.597591300315 0.801800871656 0
0.599090216278 0.800681530173 0
0.600509900563 0.799617320552 0
0.601905666533 0.798567197295 0
0.603128426271 0.797644094458 0
0.604067477287 0.796933173412 0
0.604559523997 0.796559967576 0
0.604792471804 0.796383115121 0
0.605071815521 0.796170897523 0
0.605425900089 0.795901677032 0
0.60581703501 0.795603997031 0
0.606492609115 0.795089123991 0
0.607310226099 0.794464781646 0
0.608354787637 0.793665201681 0
0.609645998337 0.792673802211 0
0.611202359915 0.791474368021 0
0.613112897574 0.78999530051 0
0.615144880894 0.788414088858 0
0.617152093105 0.786843881578 0
0.617295696171 0.786731226969 0
0.618658846368 0.785659743026 0
0.619372684608 0.785097113459 0
0.619583781054 0.784930530846 0
0.623902457929 0.781502222 0
0.624909849254 0.780696919621 0
0.626496941757 0.779423878239 0
0.629009424714 0.777397674051 0
0.633078209289 0.77408783799 0
0.638269061002 0.769813357749 0
0.643467155829 0.765473722194 0
0.648094860006 0.761559618437 0
0.651357697959 0.758770814745 0
0.652612328433 0.757691988064 0
0.651550762798 0.75860503788 0
0.648517124768 0.761200064952 0
0.644014459566 0.765013317446 0
0.639216819822 0.769026564727 0
0.634801131379 0.772675561669 0
0.630965698487 0.775810729065 0
0.628289129721 0.777979928709 0
0.627682491941 0.778469453036 0
0.628814220815 0.777555577243 0
0.630997015531 0.77578525791 0
0.633482076889 0.773757363946 0
0.635390355377 0.77219110089 0
0.636137762489 0.771575496718 0
0.635891288055 0.771778640399 0
0.634861943162 0.77262559699 0
0.633373294363 0.773846412402 0
0.63179943577 0.775131906814 0
0.630312076986 0.776341861299 0
0.629172883746 0.777265387341 0
0.628389798111 0.777898619121 0
0.628171196186 0.778075155934 0
0.628430810219 0.777865487579 0
0.628944884044 0.777449890884 0
0.629680684471 0.77685406326 0
0.630756871096 0.775980521383 0
0.632050288853 0.774927372313 0
0.633543630032 0.773706965747 0
0.635141710707 0.772395628756 0
0.636474779378 0.771297514073 0
0.637512947196 0.770439642125 0
0.638442130144 0.76966982951 0
0.639196070451 0.769043811184 0
0.639251099841 0.768998069798 0
0.638235745329 0.769840979284 0
0.637015147395 0.770851283964 0
0.636150921921 0.771564647025 0
0.635603393959 0.772015754754 0
0.636158354661 0.771558518711 0
0.635730773173 0.771910865347 0
0.634725506059 0.772737686384 0
0.632630470224 0.774453799877 0
0.631085420094 0.775713344313 0
0.629429678721 0.777057449321 0
0.628809427709 0.777559453434 0
0.628208538739 0.778045006317 0
0.625925463664 0.779882884757 0
0.624947167505 0.780667046715 0
0.623502954704 0.781820993243 0
0.622120268433 0.782921689318 0
0.620167297781 0.784469580521 0
0.61855349523 0.785742689141 0
0.617655644942 0.786448666011 0
0.617466012717 0.786597561107 0
0.617276345741 0.786746409581 0
0.616565424193 0.787303675649 0
0.615092241928 0.788455156569 0
0.61319840978 0.789928927337 0
0.621943457724 0.783062152958 0
0.620568403685 0.784152317058 0
0.619823926656 0.784740912623 0
0.61983025667 0.78473591285 0
0.620316332264 0.784351737377 0
0.620869217294 0.783914163041 0
0.621132467015 0.783705594225 0
0.620931429829 0.783864885966 0
0.62042975274 0.784262023762 0
0.619966067915 0.78462862211 0
0.619768100809 0.784785003182 0
0.619949061173 0.784642059509 0
0.620480612446 0.784221785963 0
0.621472164941 0.783436243866 0
0.622743976763 0.782425676602 0
0.623965426961 0.781451947312 0
0.624969855226 0.78064888398 0
0.625522934959 0.780205779164 0
0.625464119794 0.780252930049 0
0.624818517047 0.780770017838 0
0.62385231466 0.781542250613 0
0.622949844454 0.782261779262 0
0.622516712427 0.78260650569 0
0.630498928833 0.776190118941 0
0.630773562615 0.77596695336 0
0.631148536675 0.775661991239 0
0.631783619499 0.775144798172 0
0.633550410249 0.773701413772 0
0.635184387422 0.772360533673 0
0.637390870836 0.770540639925 0
0.639789849403 0.768549899877 0
0.638763998323 0.769402725786 0
0.640993021875 0.76754670601 0
0.643183182582 0.765712343928 0
0.645372044946 0.763868394163 0
0.649076520727 0.760723123246 0
0.650323539306 0.75965735317 0
0.651691264889 0.758484340819 0
0.65445209385 0.756103469676 0
0.65840702028 0.752662072677 0
0.662359180843 0.749186435778 0
0.661891754335 0.749599430058 0
0.663207604772 0.748435483507 0
0.662477950047 0.749081414601 0
0.659866539924 0.751382824856 0
0.659330488789 0.751853248016 0
0.654699408303 0.755889333678 0
0.650779595792 0.759266697348 0
0.648812087801 0.760948667601 0
0.637670954585 0.770308869012 0
0.639111227927 0.769114320721 0
0.641831593744 0.766845620234 0
0.64504038821 0.764148478751 0
0.647498147253 0.762067024155 0
0.648433990879 0.761270884425 0
0.64794871126 0.761683968308 0
0.646295189336 0.763087497107 0
0.643780511081 0.765210202201 0
0.640991000533 0.767548394068 0
0.638506095379 0.769616765776 0
0.6361790996 0.771541413815 0
0.634026226317 0.773311544167 0
0.632529165487 0.774536541945 0
0.631933648873 0.775022492204 0
0.631989039605 0.774977324712 0
0.632459526102 0.774593408081 0
0.633399812122 0.773824707543 0
0.634514323725 0.772911102901 0
0.635607400463 0.772012456167 0
0.636586296234 0.7712054768 0
0.63769799036 0.770286487672 0
0.639019159673 0.769190817399 0
0.640611843569 0.767864874753 0
0.64229014357 0.766461591649 0
0.643480889712 0.765462177103 0
0.644291985877 0.764779600234 0
0.645127327972 0.76407508185 0
0.646068049603 0.763279814539 0
0.646943583229 0.76253786799 0
0.647533513528 0.76203697342 0
0.652472760846 0.757812177491 0
0.651562724835 0.758594763761 0
0.649497079896 0.760364085952 0
0.646913112516 0.762563718554 0
0.644346979345 0.764733267361 0
0.642826510903 0.766011799439 0
0.643348035834 0.765573840193 0
0.644967862825 0.764209693685 0
0.646254971422 0.763121557756 0
0.646801223702 0.762658624167 0
0.646696859073 0.762747122227 0
0.645931020804 0.763395779634 0
0.646206682296 0.763162449126 0
0.644408251918 0.764681636278 0
0.642688599049 0.766127512006 0
0.640895351114 0.767628262195 0
0.638954361345 0.769244645167 0
0.637337298128 0.770584952108 0
0.637179483959 0.770715450229 0
0.638937060186 0.769259015626 0
0.642606690163 0.766196216225 0
0.647736909394 0.761864093004 0
0.653103468684 0.757268683621 0
0.657709763631 0.753271442991 0
0.660858858443 0.750510205938 0
0.662403478827 0.749147269392 0
0.662127994518 0.749390765139 0
0.660655697402 0.750689049801 0
0.658922931438 0.752210456206 0
0.657327974922 0.753604626701 0
0.655960736172 0.75479501363 0
0.655293456621 0.755374401016 0
0.655533792826 0.755165840371 0
0.656257595613 0.75453692302 0
0.656873461161 0.754000832906 0
0.657019076222 0.753873950658 0
0.656436898946 0.75438093673 0
0.654885370019 0.755728226372 0
0.652577767601 0.757721754493 0
0.650133626059 0.759819891993 0
0.647755420929 0.761848354108 0
0.645604729117 0.763671744758 0
0.643810610626 0.765184878082 0
0.642082722484 0.766635361491 0
0.64030104121 0.768124063303 0
0.638593058436 0.76954460931 0
0.636960803745 0.77089618918 0
0.635417427738 0.77216882385 0
0.633791561275 0.773503882897 0
0.632136332637 0.77485718488 0
0.63081590868 0.775932528868 0
0.630259602067 0.776384462752 0
0.630527428151 0.776166968087 0
0.632274597806 0.774744366207 0
0.6358205293 0.771836935188 0
0.634923052447 0.772575379799 0
0.638234805501 0.769841758446 0
0.640113719232 0.768280174448 0
0.647808343898 0.761803353613 0
0.646905564821 0.762570121499 0
0.645057310844 0.764134193533 0
0.642778258076 0.766052289955 0
0.638978766091 0.769224373304 0
0.636481139454 0.771292265694 0
0.634053711856 0.77328900838 0
0.631934420466 0.775021863066 0
0.63073763281 0.775996158855 0
0.630877816689 0.775882194931 0
0.63231450332 0.77471179731 0
0.634396152554 0.773008099327 0
0.636587030602 0.771204870621 0
0.638600143962 0.769538729456 0
0.640104198002 0.768288107223 0
0.640974478052 0.767562191934 0
0.640746473882 0.767752535787 0
0.639255873232 0.768994101758 0
0.636736113497 0.771081786692 0
0.633648996083 0.77362067563 0
0.630442387829 0.776236043758 0
0.627343140955 0.778742950849 0
0.62453190793 0.780999293199 0
0.622333708765 0.78275203924 0
0.621044921422 0.783774971262 0
0.62081178129 0.783959649607 0
0.621188464817 0.783661209439 0
0.621904288219 0.783093261556 0
0.622806855113 0.782375626681 0
0.623878699082 0.781521188984 0
0.625087269823 0.780554870016 0
0.626266853595 0.779608766041 0
0.627568711208 0.778561181098 0
0.628732788131 0.777621425328 0
0.629396013099 0.777084717836 0
0.629713408958 0.776827537217 0
0.630078542612 0.776531409629 0
0.630693989445 0.776031630592 0
0.631477248691 0.775394405697 0
0.631986447241 0.774979438762 0
0.631135707266 0.775672430226 0
0.629893491707 0.776681523603 0
0.627433712496 0.778669979146 0
0.624481925867 0.781039259106 0
0.618603643304 0.78570320891 0
0.617952996273 0.786215043355 0
0.619285115486 0.785166189884 0
0.621508001902 0.783407814341 0
0.622958200633 0.782255124792 0
0.623663898134 0.781692613605 0
0.621475689476 0.783433447965 0
0.618066531184 0.786125793388 0
0.6140505574 0.789266693175 0
0.609717351196 0.792618919564 0
0.605731657209 0.79566900119 0
0.60273529958 0.797941199989 0
0.601186167689 0.799108998685 0
0.601574588954 0.798816633481 0
0.603920339143 0.797044681288 0
0.60804687551 0.793901125571 0
0.613317908599 0.789836149459 0
0.618592263115 0.785712168681 0
0.622465809598 0.782646993146 0
0.624584896018 0.780956917932 0
0.625302692276 0.780382305689 0
0.624863470059 0.780734041647 0
0.623911468851 0.781495028158 0
0.62302852289 0.782199117659 0
0.62244022612 0.782667339876 0
0.621891956186 0.783103055051 0
0.621366492273 0.783520058633 0
0.620996906122 0.783813015066 0
0.620796791348 0.783971519796 0
0.6209687347 0.783835333808 0
0.621506359669 0.783409117187 0
0.622420758074 0.782682822041 0
0.623723863857 0.781644766921 0
0.625159170556 0.780497284729 0
0.626272839304 0.779603957629 0
0.62711182037 0.778929242456 0
0.627818136184 0.778360063131 0
0.628372792806 0.777912355771 0
0.628528807875 0.777786305916 0
0.628427295303 0.777868327237 0
0.628422447757 0.777872243466 0
0.628647060399 0.777690731237 0
0.629263158054 0.777192304334 0
0.630334594871 0.776323578483 0
0.631378980029 0.775474424838 0
0.632151364758 0.774844921281 0
0.63270142327 0.774395834823 0
0.632893262541 0.774239057547 0
0.632532687545 0.774533665625 0
0.631568991946 0.77531968143 0
0.630240920328 0.776399627991 0
0.62953984982 0.776968195932 0
0.628657221749 0.77768251719 0
0.630419031847 0.776255012406 0
0.633165426383 0.774016500362 0
0.634140815106 0.773217580386 0
0.638404738968 0.769700844006 0
0.642252826431 0.766492861638 0
0.644800635842 0.764350796439 0
0.653556019557 0.75687814693 0
0.652242127117 0.758010690963 0
0.64894295565 0.760837065548 0
0.644753600192 0.764390472886 0
0.640965331638 0.767569829812 0
0.6384390339 0.769672397838 0
0.638228408959 0.769847061433 0
0.640203554933 0.768205316469 0
0.643300576696 0.76561371985 0
0.646006673174 0.763331761565 0
0.647219083964 0.762304045216 0
0.646326010049 0.763061392507 0
0.642918469117 0.76593461997 0
0.63765110359 0.770325301474 0
0.631467485611 0.775402356597 0
0.625406169627 0.780299380362 0
0.62013530537 0.784494871261 0
0.616036335402 0.787717737178 0
0.613685098937 0.789550884581 0
0.613471616138 0.789716769604 0
0.614989803588 0.788535060402 0
0.617414900368 0.786637680768 0
0.619745571544 0.784802794689 0
0.621570046709 0.783358587771 0
0.622980334807 0.782237497467 0
0.624168650389 0.781289636352 0
0.625275993429 0.780403698121 0
0.626198206207 0.779663906144 0
0.626842681851 0.779145847843 0
0.62707454506 0.778959251141 0
0.626713622587 0.779249661703 0
0.625890282458 0.779911119503 0
0.624903591753 0.780701928404 0
0.624178566571 0.781281714257 0
0.624338732004 0.781153728609 0
0.625439128338 0.780272962971 0
0.626431018466 0.779476862456 0
0.62637349409 0.779523088754 0
0.624903554389 0.780701958312 0
0.630693599489 0.776031947515 0
0.626984226884 0.779031950076 0
0.624125720971 0.781323930533 0
0.62385421808 0.781540731238 0
0.626559835488 0.779373320401 0
0.6306541086 0.776064040724 0
0.633843671692 0.773461181868 0
0.635371183312 0.772206876049 0
0.635759620458 0.771887106379 0
0.6353197761 0.772249170991 0
0.634375205764 0.773025289568 0
0.633030097185 0.774127183387 0
0.631382816145 0.775471301517 0
0.629291510004 0.777169347978 0
0.627131287424 0.778913569232 0
0.625363135186 0.780333870308 0
0.624529612046 0.781001129114 0
0.625259925288 0.780416571985 0
0.627552299263 0.77857440986 0
0.630580161905 0.776124126292 0
0.633655974541 0.773614959737 0
0.635904065877 0.771768112195 0
0.637005681908 0.770859105944 0
0.636626082722 0.77117263359 0
0.635300235509 0.772265246377 0
0.633826571837 0.773475194711 0
0.632406369885 0.774636807367 0
0.631358876616 0.775490792284 0
0.63065046901 0.776066998356 0
0.630708894897 0.776019516442 0
0.631292872696 0.775544524114 0
0.632457471205 0.77459508591 0
0.633835155992 0.77346816032 0
0.635339238654 0.772233158979 0
0.636644280847 0.771157610132 0
0.637516492247 0.7704367087 0
0.637895829679 0.770122659372 0
0.63788129166 0.770134701043 0
0.637589668063 0.770376151746 0
0.636778091559 0.771047120551 0
0.635519582829 0.772084749131 0
0.634148878746 0.773210967062 0
0.632833617908 0.774287809568 0
0.631758441466 0.775165318908 0
0.630782967431 0.775959308211 0
0.629895154281 0.776680175241 0
0.62888349885 0.777499546542 0
0.627764059774 0.778403677571 0
0.626457963187 0.77945520741 0
0.624660847214 0.780896168487 0
0.622578085712 0.78255768298 0
0.621076436731 0.783749998237 0
0.620589333632 0.784135752904 0
0.621361564595 0.783523966477 0
0.623738446657 0.781633130159 0
0.627572348745 0.778558249003 0
0.631461141553 0.77540752299 0
0.634152843701 0.773207715188 0
0.635076206808 0.772449488023 0
0.634269395008 0.773112109953 0
0.632427792826 0.774619317382 0
0.63008682425 0.776524689824 0
0.627178981701 0.77887516645 0
0.62384803209 0.78154566908 0
0.620517576976 0.784192538005 0
0.617827180263 0.78631391653 0
0.615915336939 0.787812349308 0
0.615372852859 0.788236165095 0
0.616466046985 0.787381491346 0
0.619000824571 0.785390335553 0
0.62209488147 0.782941861475 0
0.624935721678 0.780676209303 0
0.626921965938 0.77908205513 0
0.62764851658 0.778496846259 0
0.626957142309 0.779053747638 0
0.625044992014 0.780588725231 0
0.622434416213 0.782671960347 0
0.619588844769 0.784926533784 0
0.616874176205 0.7870617833 0
0.614485421472 0.788928175944 0
0.612574257983 0.790413042944 0
0.61109663809 0.791555998597 0
0.610151071845 0.792285093591 0
0.609876522928 0.79249645222 0
0.610063493526 0.792352531306 0
0.610746115521 0.791826485018 0
0.611844240291 0.790978271271 0
0.613422444039 0.789754965258 0
0.615474035257 0.788157161944 0
0.617868868514 0.786281159205 0
0.620237292518 0.784414240673 0
0.622207261544 0.782852555518 0
0.623723206552 0.781645291426 0
0.62498733613 0.780634888842 0
0.626037152209 0.779793231603 0
0.626829941166 0.779156097877 0
0.62728730037 0.778787931849 0
0.627266068356 0.77880503304 0
0.626314814425 0.77957023624 0
0.623564712809 0.781771737107 0
0.619865747361 0.784707878926 0
0.616646282697 0.787240345788 0
0.61504434002 0.788492523623 0
0.616463489695 0.787383493523 0
0.620206426453 0.78443864552 0
0.624118196056 0.781329941415 0
0.626924555469 0.779079971344 0
0.628238593267 0.778020738753 0
0.627714864406 0.7784433499 0
0.625729368444 0.780040228108 0
0.622903136639 0.782298972494 0
0.619248874711 0.785194772759 0
0.615116516171 0.788436219065 0
0.611378760678 0.791338114204 0
0.609035744771 0.793142775036 0
0.608592578895 0.793482874997 0
0.610186135785 0.792258089069 0
0.613537518553 0.78966557056 0
0.617908900806 0.786249699716 0
0.622036042539 0.782988608973 0
0.625070084714 0.780568631957 0
0.626850992164 0.779139161911 0
0.627327462825 0.778755580645 0
0.626981401591 0.779034223933 0
0.626133352344 0.779715990013 0
0.62508251407 0.780558678514 0
0.62408662683 0.781355157538 0
0.623200947161 0.782061749133 0
0.622397356895 0.782701431026 0
0.62192732423 0.783074966639 0
0.622022946621 0.782999012692 0
0.622507803734 0.782613591941 0
0.623066936726 0.782168519156 0
0.623798689571 0.781585052882 0
0.624549431086 0.780985280354 0
0.625374483868 0.780324775287 0
0.626361323958 0.779532867716 0
0.627643576099 0.778500829403 0
0.628895342025 0.777489966996 0
0.629628913825 0.776896023207 0
0.629961525513 0.776626342827 0
0.630065971343 0.776541609803 0
0.629928361024 0.776653243074 0
0.629483414254 0.777013919553 0
0.628880951013 0.777501607363 0
0.628136658658 0.778103038196 0
0.627666630726 0.77848224172 0
0.627195789562 0.778861631842 0
0.62637311217 0.77952339564 0
0.625202509729 0.78046256914 0
0.624098946186 0.781345317622 0
0.623572587463 0.781765455981 0
0.624048865496 0.781385316904 0
0.626129285243 0.779719255989 0
0.630175573622 0.776452668494 0
0.635625902544 0.771997222802 0
0.641008143969 0.767534077006 0
0.644791226262 0.764358734192 0
0.646797472536 0.762661805469 0
0.646899588452 0.762575191349 0
0.645286376711 0.76394076474 0
0.642730325704 0.766092506438 0
0.639924285108 0.768437967132 0
0.637057754144 0.770816072669 0
0.634032257112 0.773306599572 0
0.631365735145 0.775485208425 0
0.630201497256 0.776431627934 0
0.63093840993 0.77583292201 0
0.6335718124 0.773683887988 0
0.637511988645 0.770440435293 0
0.641747423461 0.766916060909 0
0.645176901921 0.764033222594 0
0.647150053923 0.762362648421 0
0.647707817493 0.761888825983 0
0.647087669951 0.76241560018 0
0.645320373557 0.763912046948 0
0.64295697211 0.765902299262 0
0.640514339529 0.767946209612 0
0.638249709084 0.769829402435 0
0.636337674957 0.771410632173 0
0.63478641605 0.772687650993 0
0.633673843068 0.77360032356 0
0.633099188208 0.774070680164 0
0.633066716291 0.774097237254 0
0.633472076578 0.773765551182 0
0.634155806401 0.773205285295 0
0.635033035479 0.772484979692 0
0.636019862408 0.771672686197 0
0.636880651467 0.770962408803 0
0.637334293058 0.770587437539 0
0.637327576374 0.770592992697 0
0.636884656904 0.770959099953 0
0.635848019277 0.771814288791 0
0.63455248122 0.772879776276 0
0.633122841811 0.774051333684 0
0.631673118382 0.775234849264 0
0.63025874302 0.776385160115 0
0.628923270152 0.777467375689 0
0.630420828872 0.776253552986 0
0.628430188794 0.777865989623 0
0.62597865084 0.77984019433 0
0.622528567133 0.782597075834 0
0.624588979818 0.78095365182 0
0.62006882548 0.784547418368 0
0.617300098766 0.786727772526 0
0.617277086085 0.786745828711 0
0.619726525199 0.784817834892 0
0.620989162374 0.783819150196 0
0.621888097744 0.783106119172 0
0.622514889539 0.782607955686 0
0.633015498205 0.774139121239 0
0.632587609016 0.774488810067 0
0.631471525278 0.77539906678 0
0.62945621212 0.777035956069 0
0.634365334449 0.773033390255 0
0.631049269079 0.77574275375 0
0.627925105245 0.778273770728 0
0.626215984468 0.779649626946 0
0.626686034237 0.779271848903 0
0.629155910898 0.777279126043 0
0.632822379482 0.774296994716 0
0.636508298117 0.771269853183 0
0.638902235015 0.769287939651 0
0.639488361442 0.768800777562 0
0.638506447586 0.76961647357 0
0.636381984326 0.771374079176 0
0.633539529712 0.773710323243 0
0.630538939699 0.776157616418 0
0.628118872901 0.77811739571 0
0.626140947576 0.779709890773 0
0.624467119091 0.781051097672 0
0.623908677735 0.781497256455 0
0.624213507351 0.781253798224 0
0.624806600604 0.780779553934 0
0.626070470945 0.779766481333 0
0.62645280929 0.779459349634 0
0.625502863688 0.7802218707 0
0.623517201192 0.781809631444 0
0.623863168785 0.781533586376 0
0.624368190766 0.781130182722 0
0.624184331732 0.781277108343 0
0.624221705106 0.781247248235 0
0.623634008016 0.781716460135 0
0.621794266657 0.783180624092 0
0.61934291488 0.785120598245 0
0.616543229183 0.787321056843 0
0.614060640884 0.789258848108 0
0.612347826979 0.79058847626 0
0.611494086357 0.791249001485 0
0.610937392874 0.791678913442 0
0.610414980961 0.792081783037 0
0.609658197138 0.792664419955 0
0.608981953622 0.793184077099 0
0.609206462571 0.793011655628 0
0.611136360813 0.791525330291 0
0.614800940988 0.788682320684 0
0.619229176764 0.785210307271 0
0.622907063919 0.782295845394 0
0.625096740424 0.780547285635 0
0.625955618993 0.779858681462 0
0.625480529549 0.780239775425 0
0.624192718491 0.781270407851 0
0.62279008114 0.782388979238 0
0.621676416532 0.78327417494 0
0.620699068262 0.784048893028 0
0.619742512403 0.784805210432 0
0.618374372871 0.78588366504 0
0.616755871108 0.787154492748 0
0.615293631601 0.788298006411 0
0.615236750159 0.788342401025 0
0.616958769095 0.786995474725 0
0.620090870483 0.784529994547 0
0.623945143761 0.781468142394 0
0.627624068873 0.778516556132 0
0.629949893089 0.776635778339 0
0.630356501266 0.776305791111 0
0.629204794868 0.777239555166 0
0.627083053528 0.778952401613 0
0.624626028131 0.78092401998 0
0.622417059816 0.78268576303 0
0.620806382766 0.783963924627 0
0.620499451101 0.784206880347 0
0.621746059259 0.783218895199 0
0.623685241821 0.781675584328 0
0.625783716447 0.779996628345 0
0.62685643947 0.779134779287 0
0.625920731602 0.779886682634 0
0.624273958396 0.781205494648 0
0.62364976108 0.781703892471 0
0.624332507627 0.781158703414 0
0.626178179578 0.779679990393 0
