ax,ay,az,qx,qy,qz,qw,ts
-0.269469,0.395484,-0.413568,-0.035754,0.282063,0.953496,0.100039,483563241.122646
-0.258848,0.398683,-0.384137,-0.035970,0.282201,0.953423,0.100267,483563241.124896
-0.190953,0.431580,-0.226746,-0.035150,0.283602,0.952956,0.101040,483563241.137597
-0.156743,0.447754,-0.052778,-0.033530,0.285216,0.952452,0.101793,483563241.152895
-0.156221,0.459230,0.023186,-0.032228,0.286109,0.952199,0.102075,483563241.154090
-0.164294,0.448382,-0.010121,-0.032308,0.285937,0.952297,0.101619,483563241.169140
-0.189011,0.430135,-0.116777,-0.033658,0.285084,0.952604,0.100693,483563241.185144
-0.205130,0.423314,-0.295692,-0.035200,0.284407,0.952842,0.099824,483563241.186338
-0.196972,0.432863,-0.296907,-0.036011,0.284474,0.952839,0.099374,483563241.201736
-0.188366,0.427136,-0.244520,-0.035664,0.285372,0.952567,0.099534,483563241.217568
-0.179567,0.416981,-0.168028,-0.034465,0.286880,0.952096,0.100130,483563241.217849
-0.180782,0.416517,-0.109609,-0.032998,0.288569,0.951559,0.100868,483563241.234407
-0.181017,0.414635,-0.077590,-0.031704,0.290040,0.951096,0.101427,483563241.250187
-0.203829,0.420280,-0.072053,-0.030979,0.291144,0.950766,0.101586,483563241.250596
-0.212301,0.420418,-0.085706,-0.031001,0.291819,0.950586,0.101328,483563241.266518
-0.213221,0.424586,-0.102947,-0.031665,0.292125,0.950526,0.100800,483563241.281537
-0.204403,0.428157,-0.111845,-0.032766,0.292058,0.950579,0.100137,483563241.281906
-0.201288,0.432969,-0.120417,-0.033905,0.291637,0.950746,0.099396,483563241.297499
-0.201749,0.430727,-0.135556,-0.034976,0.290989,0.950977,0.098720,483563241.313845
-0.191754,0.417919,-0.168219,-0.036139,0.290264,0.951206,0.098229,483563241.314097
-0.187837,0.400533,-0.182294,-0.037372,0.289640,0.951382,0.097904,483563241.329615
-0.173356,0.395909,-0.195655,-0.038456,0.289216,0.951495,0.097630,483563241.346000
-0.165842,0.403361,-0.190758,-0.039067,0.289148,0.951523,0.097316,483563241.346340
-0.167919,0.403750,-0.174228,-0.039179,0.289340,0.951499,0.096943,483563241.361833
-0.171493,0.405437,-0.152991,-0.039063,0.289700,0.951441,0.096480,483563241.378560
-0.178797,0.408148,-0.127862,-0.038936,0.290101,0.951385,0.095870,483563241.378985
-0.183416,0.414442,-0.119438,-0.039014,0.290406,0.951371,0.095061,483563241.394722
-0.179792,0.421232,-0.122539,-0.039360,0.290466,0.951426,0.094175,483563241.410759
-0.177397,0.428469,-0.131344,-0.039890,0.290277,0.951550,0.093273,483563241.411507
-0.186632,0.404103,-0.121959,-0.040596,0.289902,0.951715,0.092453,483563241.426588
-0.187947,0.412809,-0.116806,-0.041456,0.289507,0.951862,0.091792,483563241.442218
-0.177793,0.418926,-0.120573,-0.042251,0.289233,0.951951,0.091372,483563241.442468
-0.186045,0.423322,-0.132442,-0.042668,0.289129,0.951979,0.091210,483563241.458536
-0.188702,0.427068,-0.144306,-0.042570,0.289138,0.951972,0.091300,483563241.474264
-0.188805,0.425091,-0.187629,-0.042260,0.289147,0.951965,0.091493,483563241.474524
-0.185667,0.419310,-0.184491,-0.042070,0.289060,0.951982,0.091676,483563241.490492
-0.196643,0.417784,-0.165500,-0.042180,0.288785,0.952025,0.092040,483563241.507396
-0.205191,0.415035,-0.147356,-0.042520,0.288364,0.952099,0.092447,483563241.508091
-0.215500,0.411120,-0.140939,-0.042899,0.287851,0.952214,0.092682,483563241.523662
-0.212195,0.400783,-0.142310,-0.043256,0.287371,0.952343,0.092683,483563241.539128
-0.191619,0.392747,-0.136815,-0.043529,0.287009,0.952452,0.092553,483563241.539663
-0.174403,0.369489,-0.142027,-0.043701,0.286632,0.952578,0.092345,483563241.555552
-0.178425,0.372311,-0.139537,-0.043921,0.286089,0.952758,0.092069,483563241.571732
-0.179329,0.352113,-0.158356,-0.044255,0.285401,0.952991,0.091629,483563241.572753
-0.186994,0.341258,-0.163412,-0.044563,0.284635,0.953256,0.091103,483563241.587271
-0.177690,0.339064,-0.157594,-0.044859,0.283860,0.953519,0.090620,483563241.604211
-0.168726,0.337906,-0.137034,-0.045321,0.283108,0.953782,0.089980,483563241.604641
-0.157888,0.316861,-0.138101,-0.046039,0.282398,0.954042,0.089082,483563241.619804
-0.150851,0.303595,-0.148279,-0.046807,0.281825,0.954275,0.087997,483563241.636095
-0.146747,0.305318,-0.123519,-0.047369,0.281641,0.954400,0.086918,483563241.636315
-0.150186,0.305657,-0.113968,-0.047865,0.281815,0.954399,0.086087,483563241.651964
-0.166707,0.285693,-0.132383,-0.048338,0.282422,0.954248,0.085512,483563241.667949
-0.175467,0.270404,-0.164157,-0.048641,0.283521,0.953931,0.085240,483563241.668445
-0.195265,0.262473,-0.203427,-0.048626,0.285101,0.953461,0.085231,483563241.684200
-0.191024,0.255355,-0.221192,-0.048333,0.286981,0.952902,0.085344,483563241.700113
-0.186274,0.252115,-0.243900,-0.047799,0.288888,0.952347,0.085411,483563241.700654
-0.179754,0.248673,-0.247722,-0.047287,0.290650,0.951838,0.085385,483563241.716301
-0.157228,0.238586,-0.246381,-0.046878,0.292314,0.951353,0.085338,483563241.732938
-0.136319,0.240980,-0.206838,-0.046611,0.294055,0.950830,0.085329,483563241.733900
-0.124436,0.235399,-0.164791,-0.046530,0.296167,0.950172,0.085400,483563241.748199
-0.151587,0.226500,-0.140353,-0.046473,0.298810,0.949321,0.085682,483563241.764459
-0.223403,0.219517,-0.180782,-0.046562,0.301814,0.948333,0.086054,483563241.765096
-0.219767,0.218593,-0.227742,-0.047044,0.304753,0.947342,0.086349,483563241.780748
-0.214812,0.220576,-0.246482,-0.047764,0.307137,0.946512,0.086600,483563241.796506
-0.198630,0.222400,-0.221873,-0.048433,0.308744,0.945921,0.086970,483563241.797250
-0.176909,0.221276,-0.147975,-0.048973,0.309635,0.945548,0.087556,483563241.812500
-0.185126,0.225735,-0.065743,-0.049139,0.310013,0.945341,0.088366,483563241.828426
-0.209213,0.231538,-0.017899,-0.049276,0.310206,0.945186,0.089261,483563241.828824
-0.249724,0.264017,-0.019584,-0.050181,0.310214,0.945064,0.090013,483563241.844347
-0.261216,0.285369,-0.080782,-0.051841,0.309789,0.945092,0.090243,483563241.860586
-0.243627,0.296717,-0.139143,-0.053419,0.308876,0.945320,0.090071,483563241.861246
-0.208263,0.299513,-0.182867,-0.053646,0.307655,0.945719,0.089918,483563241.876961
-0.173371,0.283335,-0.147489,-0.052252,0.306647,0.946108,0.090100,483563241.892793
-0.125232,0.274209,-0.061386,-0.050000,0.306240,0.946311,0.090620,483563241.893200
-0.156013,0.305318,-0.059019,-0.047764,0.306682,0.946221,0.091266,483563241.908861
-0.194190,0.337907,-0.131614,-0.046714,0.307732,0.945881,0.091805,483563241.924633
-0.216296,0.353665,-0.222340,-0.047517,0.309018,0.945418,0.091845,483563241.925020
-0.207471,0.376243,-0.270615,-0.049254,0.310210,0.945045,0.090746,483563241.940967
-0.219719,0.398297,-0.273137,-0.050716,0.310997,0.944906,0.088666,483563241.956925
-0.208034,0.418638,-0.205819,-0.050987,0.311458,0.944969,0.086190,483563241.957350
-0.166297,0.374529,-0.125826,-0.049536,0.312091,0.945022,0.084133,483563241.972959
-0.210562,0.493886,-0.206187,-0.047235,0.313344,0.944795,0.083345,483563241.988304
-0.283444,0.495298,-0.333759,-0.045238,0.315162,0.944248,0.083805,483563241.988723
-0.315054,0.487424,-0.386273,-0.044495,0.316951,0.943559,0.085199,483563242.004556
-0.284678,0.500723,-0.310885,-0.045531,0.318083,0.942971,0.086927,483563242.020752
-0.230416,0.519143,-0.145573,-0.047713,0.318172,0.942674,0.088629,483563242.021073
-0.146608,0.499847,-0.030495,-0.049469,0.317090,0.942822,0.089959,483563242.036791
-0.123151,0.462731,0.042785,-0.049384,0.315651,0.943239,0.090695,483563242.053123
-0.193562,0.406454,-0.215964,-0.047069,0.314835,0.943583,0.091186,483563242.053537
-0.221470,0.392670,-0.414838,-0.042800,0.315146,0.943612,0.091914,483563242.069534
-0.223384,0.378392,-0.519157,-0.037726,0.316502,0.943248,0.093204,483563242.085470
-0.227664,0.432024,-0.474934,-0.033709,0.318201,0.942632,0.095170,483563242.085887
-0.222652,0.502234,-0.304901,-0.032199,0.319097,0.942144,0.097490,483563242.101685
-0.210755,0.545898,-0.110669,-0.033347,0.317946,0.942263,0.099693,483563242.118302
-0.153077,0.524103,0.025182,-0.035385,0.314393,0.943204,0.101349,483563242.118925
-0.098385,0.485570,0.050789,-0.035904,0.309317,0.944766,0.102230,483563242.133433
-0.097279,0.483333,-0.018707,-0.034975,0.304132,0.946441,0.102617,483563242.149734
-0.139770,0.468846,-0.177321,-0.033808,0.299906,0.947800,0.102901,483563242.150711
-0.210200,0.469115,-0.347526,-0.033157,0.296789,0.948752,0.103378,483563242.165869
-0.238227,0.480294,-0.429776,-0.033635,0.294340,0.949408,0.104196,483563242.181530
-0.224642,0.560230,-0.272450,-0.035072,0.292278,0.949948,0.104602,483563242.181946
-0.177680,0.610516,-0.177245,-0.036956,0.290575,0.950402,0.104573,483563242.198242
-0.154972,0.623031,-0.130943,-0.038519,0.289564,0.950700,0.104109,483563242.214552
-0.118751,0.634690,-0.102282,-0.039169,0.289511,0.950817,0.102935,483563242.215000
-0.070306,0.652037,-0.092435,-0.039632,0.290431,0.950736,0.100896,483563242.230310
-0.092927,0.685836,-0.109578,-0.040680,0.291957,0.950531,0.097966,483563242.245944
-0.075519,0.674578,-0.105519,-0.042514,0.293494,0.950335,0.094429,483563242.246334
-0.121237,0.710661,-0.128272,-0.045004,0.294371,0.950305,0.090783,483563242.262243
-0.160736,0.769199,-0.194302,-0.047867,0.294079,0.950584,0.087273,483563242.278174
-0.235051,0.975704,-0.268547,-0.051346,0.292629,0.951139,0.084057,483563242.278546
-0.243887,0.975286,-0.318364,-0.055638,0.290544,0.951764,0.081444,483563242.294806
-0.231804,0.987351,-0.370377,-0.060096,0.288569,0.952241,0.079708,483563242.310198
-0.201050,0.980880,-0.380332,-0.063778,0.287213,0.952464,0.079078,483563242.310636
-0.166536,0.973006,-0.342523,-0.066489,0.286572,0.952449,0.079354,483563242.326459
-0.136138,0.966032,-0.259764,-0.068459,0.286380,0.952288,0.080297,483563242.342496
-0.152469,0.959644,-0.163296,-0.069742,0.286174,0.952130,0.081781,483563242.342906
-0.154825,0.958246,-0.162910,-0.070379,0.285680,0.952044,0.083944,483563242.358357
-0.197939,0.948075,-0.154608,-0.070309,0.285189,0.951962,0.086552,483563242.374691
-0.232144,0.885351,-0.185207,-0.069526,0.284864,0.951899,0.088925,483563242.375121
-0.227477,0.800915,-0.170139,-0.068362,0.284737,0.951848,0.090756,483563242.390621
-0.213295,0.718264,-0.136931,-0.067761,0.285023,0.951683,0.092030,483563242.406734
-0.238699,0.664126,-0.134654,-0.068534,0.285759,0.951322,0.092903,483563242.407110
-0.249105,0.631451,-0.131273,-0.070445,0.286872,0.950809,0.093299,483563242.423160
-0.169793,0.620159,-0.104418,-0.072617,0.288389,0.950186,0.093297,483563242.438882
-0.087809,0.625881,-0.082862,-0.073829,0.290313,0.949514,0.093220,483563242.439305
-0.227212,0.633067,-0.133493,-0.073644,0.292458,0.948889,0.093036,483563242.454907
-0.132836,0.627035,-0.100132,-0.072552,0.294259,0.948493,0.092246,483563242.470978
-0.053095,0.628785,-0.093308,-0.071166,0.295034,0.948547,0.090268,483563242.471347
-0.000444,0.595299,-0.103037,-0.070495,0.294763,0.948923,0.087695,483563242.486845
-0.011796,0.524550,-0.030877,-0.071093,0.294114,0.949250,0.085827,483563242.503000
-0.195660,0.556095,-0.053993,-0.072709,0.293756,0.949249,0.085716,483563242.503396
0.007915,0.521369,-0.033288,-0.074317,0.293836,0.948942,0.087444,483563242.519061
-0.162465,0.547014,-0.043791,-0.074838,0.294045,0.948555,0.090445,483563242.535474
-0.348688,0.584633,-0.114983,-0.073848,0.294070,0.948327,0.093513,483563242.535890
-0.142154,0.490690,-0.133884,-0.072216,0.293004,0.948553,0.095814,483563242.551799
-0.036278,0.449008,-0.051253,-0.070847,0.290077,0.949446,0.096890,483563242.567262
-0.138853,0.477432,-0.124486,-0.070809,0.285225,0.950935,0.096727,483563242.567639
-0.037367,0.430337,-0.039597,-0.072513,0.279424,0.952595,0.096056,483563242.583314
-0.290471,0.380229,-0.293225,-0.075277,0.274343,0.953909,0.095539,483563242.599738
-0.294691,0.374585,-0.290817,-0.077727,0.271451,0.954539,0.095537,483563242.600107
-0.266791,0.359075,-0.359601,-0.078274,0.271361,0.954464,0.096098,483563242.615809
-0.193155,0.412195,-0.328904,-0.076359,0.273575,0.953915,0.096808,483563242.631380
-0.116323,0.435151,-0.226454,-0.073028,0.276612,0.953229,0.097505,483563242.631800
-0.284126,0.318731,0.067474,-0.069688,0.279187,0.952682,0.097954,483563242.647483
-0.251141,0.277362,0.023653,-0.067678,0.280605,0.952434,0.097719,483563242.663838
-0.177928,0.235606,-0.024423,-0.067501,0.281174,0.952432,0.096219,483563242.664227
-0.105577,0.242735,-0.062178,-0.068415,0.281540,0.952545,0.093338,483563242.679833
-0.080631,0.260866,-0.118492,-0.070442,0.282010,0.952597,0.089818,483563242.696053
-0.048858,0.302641,-0.178449,-0.073586,0.282659,0.952427,0.087013,483563242.696502
-0.024824,0.285410,-0.246433,-0.076782,0.283809,0.951993,0.085246,483563242.711982
-0.165790,0.086902,-0.302933,-0.078567,0.285343,0.951446,0.084606,483563242.727981
-0.304095,0.011099,-0.221020,-0.078470,0.286939,0.950919,0.085211,483563242.728381
-0.389908,-0.012721,-0.097831,-0.076611,0.288086,0.950580,0.086802,483563242.744099
-0.352093,0.263146,-0.268182,-0.073796,0.288332,0.950623,0.087947,483563242.760090
-0.351538,0.154204,-0.318751,-0.071603,0.287404,0.951178,0.086789,483563242.760364
-0.337590,0.054728,-0.274888,-0.071459,0.285247,0.952073,0.084169,483563242.775967
-0.329087,-0.014572,-0.167869,-0.073762,0.282162,0.953021,0.081822,483563242.791828
-0.393207,-0.031825,-0.050529,-0.077772,0.279108,0.953758,0.079979,483563242.792106
-0.560840,-0.014454,-0.028986,-0.081760,0.277047,0.954165,0.078290,483563242.808205
-0.705371,0.034621,-0.099434,-0.084620,0.276324,0.954215,0.077191,483563242.823919
-0.747363,0.109701,-0.208867,-0.086622,0.276653,0.953898,0.077712,483563242.824154
-0.697264,0.146473,-0.337514,-0.087993,0.277529,0.953336,0.079906,483563242.839925
-0.664212,0.166986,-0.425550,-0.088844,0.278432,0.952692,0.083431,483563242.856002
-0.635650,0.213618,-0.418779,-0.089286,0.279074,0.952061,0.087894,483563242.856273
-0.459708,0.362597,-0.300447,-0.089706,0.279554,0.951395,0.093009,483563242.872114
-0.391784,0.360914,-0.253462,-0.090273,0.280064,0.950650,0.098386,483563242.888100
-0.379459,0.312624,-0.233210,-0.090869,0.280752,0.949824,0.103711,483563242.888373
-0.365238,0.247988,-0.223905,-0.091135,0.281781,0.948928,0.108765,483563242.905195
-0.333689,0.214553,-0.219825,-0.090710,0.283129,0.948008,0.113534,483563242.920833
-0.296197,0.215404,-0.211773,-0.089530,0.284435,0.947169,0.118118,483563242.921214
-0.272983,0.212522,-0.218880,-0.087918,0.285268,0.946471,0.122824,483563242.937212
-0.237456,0.210368,-0.211294,-0.086420,0.285323,0.946002,0.127287,483563242.952799
-0.212865,0.238880,-0.164888,-0.085673,0.284514,0.945802,0.131038,483563242.953227
-0.201456,0.277022,-0.107238,-0.086027,0.282858,0.945813,0.134266,483563242.968790
-0.209218,0.297541,-0.057972,-0.087203,0.280551,0.945948,0.137365,483563242.985216
-0.277467,0.317674,-0.040193,-0.088339,0.277841,0.946178,0.140524,483563242.985588
-0.328073,0.338372,-0.044971,-0.088741,0.275315,0.946384,0.143817,483563243.001075
-0.349166,0.373236,-0.094669,-0.088039,0.273665,0.946359,0.147520,483563243.016965
-0.308222,0.389329,-0.158568,-0.086082,0.273294,0.945980,0.151733,483563243.017360
-0.222634,0.397158,-0.333546,-0.083469,0.274024,0.945292,0.156100,483563243.033548
-0.205750,0.375725,-0.365476,-0.081105,0.275338,0.944500,0.159785,483563243.049316
-0.168819,0.349099,-0.324687,-0.079719,0.276747,0.943756,0.162419,483563243.049733
-0.122922,0.318733,-0.211975,-0.079048,0.278058,0.943090,0.164367,483563243.065772
-0.134266,0.303041,-0.124216,-0.077957,0.279332,0.942458,0.166343,483563243.081338
-0.218064,0.316134,-0.105942,-0.075870,0.280659,0.941756,0.169023,483563243.081726
-0.285553,0.370551,-0.185325,-0.073146,0.281902,0.940935,0.172691,483563243.097935
-0.303129,0.410396,-0.291672,-0.070714,0.282867,0.940027,0.177019,483563243.113549
-0.314626,0.450497,-0.340834,-0.069397,0.283556,0.939090,0.181357,483563243.113912
-0.268528,0.487738,-0.298870,-0.069193,0.283939,0.938252,0.185132,483563243.129656
-0.183920,0.459969,-0.154408,-0.069385,0.284114,0.937579,0.188177,483563243.145825
-0.130276,0.415130,-0.054061,-0.068705,0.284248,0.937048,0.190848,483563243.146565
-0.103287,0.368017,-0.012683,-0.066254,0.284498,0.936617,0.193440,483563243.161710
-0.116645,0.354678,-0.055845,-0.062563,0.285167,0.936124,0.196053,483563243.177556
-0.147125,0.375108,-0.170164,-0.058857,0.286448,0.935395,0.198796,483563243.178180
-0.166516,0.408054,-0.284676,-0.057172,0.288284,0.934337,0.201588,483563243.193838
-0.186839,0.428725,-0.310225,-0.058775,0.290223,0.933083,0.204139,483563243.209937
-0.169953,0.470728,-0.064597,-0.062458,0.291678,0.931975,0.206022,483563243.210440
-0.110279,0.464995,0.068579,-0.065758,0.292132,0.931362,0.207122,483563243.226090
-0.112968,0.462897,0.069096,-0.067124,0.291378,0.931324,0.207916,483563243.241940
0.009725,0.421426,-0.177042,-0.066474,0.289595,0.931760,0.208661,483563243.242325
0.036196,0.417339,-0.187628,-0.064853,0.287304,0.932434,0.209328,483563243.258284
0.042257,0.397036,-0.194184,-0.063038,0.284971,0.933143,0.209909,483563243.274110
0.073643,0.402610,-0.184159,-0.061249,0.282689,0.933833,0.210454,483563243.274510
0.115273,0.409791,-0.155399,-0.060038,0.280295,0.934519,0.210960,483563243.290375
0.166245,0.414120,-0.113710,-0.060039,0.277572,0.935271,0.211228,483563243.306573
0.212739,0.399473,-0.107434,-0.061296,0.274625,0.936085,0.211113,483563243.306955
0.218102,0.393895,-0.157946,-0.062886,0.271812,0.936870,0.210802,483563243.322429
0.189549,0.393401,-0.099680,-0.063690,0.269531,0.937539,0.210517,483563243.338377
0.192859,0.413372,-0.272573,-0.062896,0.268010,0.938065,0.210354,483563243.338795
0.227254,0.416583,-0.190243,-0.060642,0.267311,0.938456,0.210162,483563243.354421
0.218456,0.400879,-0.148024,-0.057740,0.267256,0.938752,0.209726,483563243.370847
0.198739,0.388538,-0.160809,-0.055318,0.267709,0.938964,0.208849,483563243.371273
0.185124,0.389078,-0.186216,-0.053734,0.268658,0.939092,0.207465,483563243.386677
0.205581,0.397658,-0.177760,-0.052585,0.270256,0.939093,0.205670,483563243.402478
0.248580,0.400304,-0.135429,-0.051332,0.272614,0.938890,0.203795,483563243.402858
0.121518,0.399672,-0.108238,-0.049371,0.275411,0.938538,0.202132,483563243.418777
0.089796,0.385313,-0.035064,-0.046776,0.278307,0.938250,0.200111,483563243.435097
0.038688,0.358271,0.015508,-0.044228,0.281077,0.938112,0.197450,483563243.435682
0.014603,0.407231,0.026241,-0.042517,0.283577,0.938095,0.194305,483563243.451549
-0.015739,0.436278,-0.003332,-0.041981,0.285870,0.938097,0.191025,483563243.466866
-0.034709,0.426705,-0.042159,-0.042174,0.287883,0.938094,0.187950,483563243.467257
-0.036893,0.418708,-0.104442,-0.042632,0.289755,0.938068,0.185077,483563243.482952
-0.074097,0.425070,-0.113860,-0.042740,0.291696,0.938045,0.182093,483563243.499587
-0.125336,0.416777,-0.129366,-0.042415,0.293870,0.938050,0.178618,483563243.500070
-0.139591,0.417030,-0.124441,-0.042149,0.296367,0.938014,0.174697,483563243.516911
-0.028900,0.435674,-0.099512,-0.042155,0.299061,0.937930,0.170508,483563243.531509
-0.039577,0.439731,-0.128367,-0.042362,0.301661,0.937913,0.165909,483563243.532123
-0.086690,0.449645,-0.131549,-0.042818,0.303946,0.938041,0.160819,483563243.547607
-0.128148,0.438311,-0.141181,-0.043601,0.305978,0.938262,0.155373,483563243.563361
-0.125015,0.441115,-0.126671,-0.044425,0.307712,0.938570,0.149750,483563243.563725
-0.098992,0.436036,-0.088879,-0.045259,0.309091,0.938968,0.144060,483563243.579421
-0.103502,0.442508,-0.069824,-0.046201,0.310236,0.939401,0.138366,483563243.595336
-0.122196,0.455185,-0.066546,-0.047179,0.311233,0.939850,0.132627,483563243.595768
-0.135681,0.482537,-0.075711,-0.048014,0.311896,0.940409,0.126676,483563243.611526
-0.164786,0.504760,-0.075130,-0.048862,0.311764,0.941277,0.120059,483563243.627541
-0.196445,0.506742,-0.079356,-0.050042,0.310828,0.942459,0.112480,483563243.627982
-0.184104,0.484179,-0.092098,-0.051379,0.309171,0.943826,0.104714,483563243.643930
-0.187003,0.451860,-0.101135,-0.052643,0.306880,0.945291,0.097353,483563243.660020
-0.196213,0.405671,-0.086107,-0.054050,0.304276,0.946747,0.090362,483563243.660406
-0.210160,0.413318,-0.090459,-0.055594,0.301734,0.948071,0.083835,483563243.675945
-0.201419,0.442555,-0.126962,-0.056996,0.299648,0.949153,0.077923,483563243.691388
-0.170980,0.472137,-0.166957,-0.057782,0.298209,0.949980,0.072595,483563243.691613
-0.164722,0.496019,-0.214474,-0.057635,0.297393,0.950606,0.067703,483563243.707904
-0.184477,0.490151,-0.259167,-0.056716,0.296954,0.951128,0.062900,483563243.724060
-0.199118,0.480200,-0.278488,-0.055539,0.296819,0.951550,0.058025,483563243.724628
-0.214106,0.464935,-0.282283,-0.054500,0.296905,0.951867,0.053167,483563243.740132
-0.222272,0.424221,-0.272140,-0.053915,0.297041,0.952114,0.048351,483563243.756120
-0.234486,0.404837,-0.251228,-0.053849,0.296957,0.952379,0.043478,483563243.756747
-0.226417,0.403421,-0.225395,-0.054012,0.296799,0.952628,0.038645,483563243.771579
-0.242593,0.404169,-0.202945,-0.053887,0.296921,0.952777,0.033919,483563243.787591
-0.224791,0.413573,-0.176882,-0.053317,0.297498,0.952783,0.029275,483563243.787863
-0.247614,0.392495,-0.192297,-0.052344,0.298237,0.952732,0.024815,483563243.803736
-0.273658,0.345960,-0.206922,-0.051134,0.298504,0.952816,0.020535,483563243.819811
-0.313085,0.315537,-0.184085,-0.050192,0.297735,0.953187,0.016386,483563243.820082
-0.348233,0.320039,-0.150595,-0.050262,0.295823,0.953840,0.012326,483563243.835972
-0.368298,0.345064,-0.110629,-0.051731,0.293144,0.954631,0.008353,483563243.852683
-0.388590,0.397387,-0.083969,-0.054228,0.290426,0.955350,0.004341,483563243.853198
-0.412050,0.457373,-0.074967,-0.056960,0.288346,0.955830,0.000185,483563243.869037
-0.426185,0.502137,-0.099500,-0.059472,0.287305,0.955983,-0.003840,483563243.884700
-0.434853,0.573417,-0.162948,-0.061456,0.287447,0.955796,-0.007154,483563243.885070
-0.400209,0.646634,-0.251742,-0.062542,0.288593,0.955360,-0.009504,483563243.900669
-0.371302,0.717036,-0.328267,-0.062810,0.290369,0.954790,-0.010820,483563243.916741
-0.352627,0.800494,-0.418691,-0.062565,0.292190,0.954249,-0.010903,483563243.917346
-0.352173,0.868423,-0.479661,-0.061903,0.293356,0.953949,-0.009599,483563243.932786
-0.392002,1.066001,-0.331611,-0.061010,0.293366,0.954025,-0.007018,483563243.949588
-0.395837,1.069119,-0.312277,-0.060238,0.292105,0.954482,-0.003255,483563243.950810
-0.383721,1.028539,-0.308168,-0.059612,0.290764,0.954935,0.001316,483563243.964979
-0.394597,1.059927,-0.327851,-0.058513,0.290659,0.955021,0.005378,483563243.981182
-0.397057,1.066514,-0.310684,-0.057760,0.291241,0.954880,0.006873,483563243.981575
-0.382923,1.029680,-0.308828,-0.058110,0.291634,0.954751,0.004901,483563243.997074
-0.169745,0.628678,-0.313912,-0.060056,0.290508,0.954985,0.001313,483563244.013019
-0.009621,0.347486,-0.212334,-0.063722,0.287638,0.955615,-0.001909,483563244.013390
0.073215,0.409035,-0.084793,-0.067772,0.283720,0.956503,-0.003519,483563244.029168
0.010272,0.567599,0.026416,-0.070424,0.279873,0.957446,-0.003107,483563244.045205
-0.120073,0.693322,0.025528,-0.071773,0.276804,0.958241,-0.001529,483563244.045662
-0.153807,0.722729,-0.024711,-0.073059,0.275090,0.958638,0.000056,483563244.061470
-0.182869,0.730560,-0.151639,-0.074528,0.275159,0.958505,0.001035,483563244.077604
-0.202215,0.701019,-0.250409,-0.075599,0.276982,0.957895,0.001614,483563244.077972
-0.121967,0.586898,-0.262307,-0.075849,0.280142,0.956954,0.002439,483563244.093695
-0.121230,0.592918,-0.266087,-0.075148,0.283682,0.955962,0.003734,483563244.109429
-0.236090,0.557993,0.002685,-0.074133,0.286607,0.955161,0.005359,483563244.109814
-0.235193,0.518993,0.004396,-0.073320,0.288234,0.954722,0.007187,483563244.125879
-0.207624,0.470873,-0.001788,-0.072469,0.288346,0.954736,0.009185,483563244.141792
-0.173095,0.449292,-0.005841,-0.071247,0.287361,0.955100,0.011462,483563244.142172
-0.077737,0.403729,0.004036,-0.069990,0.285910,0.955592,0.014149,483563244.157886
-0.012506,0.411642,0.006255,-0.069345,0.284376,0.956053,0.016871,483563244.173698
-0.006603,0.449285,-0.040736,-0.069468,0.282901,0.956431,0.019501,483563244.174084
-0.060204,0.467642,-0.085568,-0.069927,0.280991,0.956902,0.022184,483563244.189690
-0.153396,0.461133,-0.148049,-0.070308,0.278094,0.957647,0.025152,483563244.206555
-0.219952,0.428263,-0.192043,-0.070083,0.274091,0.958716,0.028728,483563244.207151
-0.225729,0.377713,-0.165551,-0.069098,0.269343,0.959997,0.032938,483563244.222072
-0.164305,0.292146,-0.100515,-0.067757,0.264237,0.961343,0.037513,483563244.238323
-0.067317,0.219947,-0.040459,-0.066817,0.259072,0.962637,0.041788,483563244.238719
-0.035841,0.187754,-0.025938,-0.067091,0.253905,0.963843,0.045135,483563244.254153
0.025886,0.194082,-0.071130,-0.068864,0.248592,0.964996,0.047366,483563244.269916
-0.024083,0.235751,-0.166747,-0.071586,0.243024,0.966147,0.048722,483563244.270281
-0.090724,0.262711,-0.246436,-0.074153,0.237218,0.967341,0.049810,483563244.286619
-0.144394,0.271458,-0.288075,-0.075814,0.231161,0.968607,0.051155,483563244.302219
-0.175137,0.268128,-0.291767,-0.076268,0.225039,0.969918,0.052920,483563244.302606
-0.182270,0.216447,-0.265456,-0.075835,0.219241,0.971154,0.055160,483563244.318363
-0.141830,0.144463,-0.193865,-0.075272,0.213981,0.972228,0.057616,483563244.334550
-0.085419,0.088781,-0.142853,-0.075381,0.209344,0.973093,0.059863,483563244.335029
-0.047082,0.056857,-0.133661,-0.076589,0.205492,0.973702,0.061740,483563244.350779
-0.187750,0.035037,-0.224216,-0.078702,0.202493,0.974053,0.063425,483563244.367303
-0.182762,0.039119,-0.270292,-0.080985,0.199988,0.974280,0.064994,483563244.368233
-0.133473,0.041956,-0.289467,-0.082907,0.197595,0.974502,0.066552,483563244.382685
-0.086624,0.026325,-0.266953,-0.084012,0.195331,0.974740,0.068336,483563244.399446
-0.056532,0.009289,-0.194947,-0.083681,0.193256,0.975035,0.070408,483563244.399824
-0.041233,-0.007559,-0.131578,-0.082206,0.191233,0.975411,0.072421,483563244.414697
-0.091496,-0.071465,-0.092736,-0.080579,0.189131,0.975834,0.074061,483563244.430708
-0.145713,-0.107073,-0.123546,-0.079773,0.187125,0.976206,0.075113,483563244.431157
-0.167089,-0.106356,-0.165190,-0.080197,0.185719,0.976424,0.075323,483563244.446976
-0.153325,-0.051980,-0.199354,-0.081479,0.185489,0.976417,0.074594,483563244.463030
-0.125477,0.021290,-0.208134,-0.083237,0.186606,0.976168,0.073111,483563244.463457
-0.094086,0.092005,-0.208886,-0.085143,0.188825,0.975721,0.071158,483563244.478989
-0.056804,0.152626,-0.201843,-0.086498,0.191593,0.975216,0.069022,483563244.494976
-0.025207,0.182069,-0.211136,-0.087079,0.194375,0.974764,0.066857,483563244.495795
-0.012239,0.191182,-0.205174,-0.086998,0.196932,0.974396,0.064814,483563244.511136
-0.028790,0.187669,-0.186057,-0.085945,0.199357,0.974125,0.062848,483563244.527572
-0.032441,0.194145,-0.157967,-0.084071,0.201940,0.973886,0.060807,483563244.527965
-0.064846,0.172920,-0.213204,-0.082268,0.205151,0.973501,0.058663,483563244.543340
-0.097362,0.212551,-0.223997,-0.081595,0.209526,0.972773,0.056152,483563244.559390
-0.104060,0.230891,-0.222673,-0.082350,0.215680,0.971504,0.053676,483563244.560001
-0.156015,0.287974,-0.164981,-0.083373,0.224042,0.969642,0.051473,483563244.575412
-0.135466,0.317230,-0.204703,-0.083250,0.234115,0.967362,0.049707,483563244.591428
-0.151757,0.361174,-0.187997,-0.080576,0.244001,0.965196,0.048648,483563244.591793
-0.209004,0.569950,-0.143743,-0.075422,0.251517,0.963694,0.048427,483563244.607744
-0.259128,0.633809,-0.107173,-0.069032,0.255286,0.963137,0.049298,483563244.624236
-0.281241,0.638047,-0.040033,-0.063879,0.255356,0.963372,0.051252,483563244.624774
-0.240171,0.565317,0.071478,-0.062739,0.252500,0.964087,0.053326,483563244.638937
-0.149328,0.449104,0.116374,-0.066317,0.247667,0.965062,0.054024,483563244.655065
-0.131261,0.365078,0.032267,-0.072903,0.241931,0.966093,0.053100,483563244.655338
-0.181476,0.348035,-0.163994,-0.079696,0.236546,0.966985,0.051321,483563244.671321
-0.216950,0.415620,-0.377054,-0.083887,0.233237,0.967530,0.049487,483563244.761493
-0.267190,0.490983,-0.474571,-0.084577,0.232887,0.967607,0.048453,483563244.761777
-0.212458,0.452404,-0.385526,-0.082619,0.235060,0.967253,0.048402,483563244.777157
-0.118432,0.403793,-0.205088,-0.078593,0.238554,0.966721,0.048648,483563244.793090
-0.078340,0.406200,-0.066535,-0.073892,0.241774,0.966283,0.048801,483563244.793366
-0.125673,0.497729,0.140665,-0.071051,0.243377,0.966110,0.048493,483563244.809052
-0.119572,0.547300,0.187840,-0.071806,0.242878,0.966253,0.046998,483563244.825949
-0.117599,0.497932,0.096682,-0.075088,0.240779,0.966662,0.044174,483563244.826202
-0.139201,0.496673,-0.059804,-0.078483,0.238233,0.967179,0.040619,483563244.841104
-0.164982,0.556083,-0.198808,-0.080618,0.236742,0.967499,0.037411,483563244.857476
-0.216080,0.631575,-0.295964,-0.080417,0.237378,0.967422,0.035773,483563244.857711
-0.259503,0.690190,-0.329965,-0.077610,0.240053,0.966993,0.035723,483563244.873700
-0.289995,0.717680,-0.250894,-0.074103,0.243583,0.966375,0.035985,483563244.889310
-0.245996,0.666837,-0.076141,-0.071977,0.246774,0.965725,0.036013,483563244.890689
-0.180114,0.571987,0.085541,-0.071693,0.249164,0.965144,0.035688,483563244.905390
-0.091473,0.528500,0.174414,-0.072673,0.250691,0.964709,0.034771,483563244.921384
0.028405,0.558515,0.165784,-0.073933,0.251533,0.964442,0.033409,483563244.921788
0.054408,0.607070,0.058240,-0.074326,0.252189,0.964286,0.032075,483563244.937485
0.018988,0.652575,-0.213232,-0.073070,0.253252,0.964133,0.031172,483563244.953461
0.004569,0.671808,-0.259037,-0.070820,0.255028,0.963842,0.030895,483563244.954635
0.021030,0.664898,-0.206228,-0.068414,0.257248,0.963416,0.031191,483563244.969600
0.080760,0.645167,-0.103950,-0.066615,0.259462,0.962938,0.031508,483563244.985679
0.139867,0.617068,-0.024192,-0.065863,0.261293,0.962496,0.031465,483563244.985913
0.168185,0.608302,0.001386,-0.065975,0.262543,0.962156,0.031230,483563245.001770
0.188668,0.624652,-0.014132,-0.066258,0.263154,0.961976,0.031024,483563245.017896
0.191742,0.666101,-0.054833,-0.066111,0.263109,0.961997,0.031056,483563245.019244
0.164520,0.690628,-0.134934,-0.064978,0.262267,0.962285,0.031633,483563245.033847
0.116612,0.695234,-0.236920,-0.062806,0.260986,0.962745,0.032631,483563245.050905
0.091854,0.687727,-0.289090,-0.059829,0.259576,0.963279,0.033663,483563245.051339
0.099675,0.660872,-0.292611,-0.056634,0.258214,0.963802,0.034696,483563245.066719
0.118720,0.556928,-0.212707,-0.053551,0.256939,0.964281,0.035728,483563245.082891
0.159690,0.520431,-0.150203,-0.050816,0.255721,0.964727,0.036428,483563245.083301
0.184464,0.496204,-0.096047,-0.048721,0.254572,0.965137,0.036460,483563245.098878
0.162910,0.460423,-0.074870,-0.047373,0.253568,0.965497,0.035701,483563245.115045
0.131051,0.434472,-0.074975,-0.046654,0.252842,0.965779,0.034148,483563245.115491
0.102880,0.440715,-0.092630,-0.046137,0.252619,0.965943,0.031750,483563245.131211
0.190217,0.506607,-0.124473,-0.045409,0.252946,0.965990,0.028642,483563245.146316
0.188358,0.484164,-0.084557,-0.044323,0.253831,0.965911,0.024927,483563245.147651
0.166571,0.454917,-0.068873,-0.042971,0.255264,0.965693,0.020729,483563245.162650
0.138933,0.438652,-0.081493,-0.041772,0.257176,0.965321,0.016455,483563245.178519
0.111734,0.451457,-0.114582,-0.040848,0.259517,0.964800,0.012019,483563245.178790
0.094418,0.443100,-0.125107,-0.040370,0.262118,0.964164,0.007203,483563245.194540
0.111229,0.458769,-0.136806,-0.040519,0.264770,0.963458,0.001862,483563245.211697
0.117264,0.472576,-0.133956,-0.041438,0.267455,0.962671,-0.003953,483563245.212136
0.127062,0.497209,-0.145293,-0.042545,0.270374,0.961761,-0.010169,483563245.226657
0.134589,0.492228,-0.140914,-0.043045,0.273648,0.960722,-0.016639,483563245.242679
0.117494,0.484899,-0.139483,-0.043023,0.276828,0.959679,-0.023035,483563245.242900
0.071112,0.469811,-0.170278,-0.043033,0.279585,0.958711,-0.029223,483563245.258827
0.030171,0.456750,-0.195626,-0.043042,0.281869,0.957846,-0.035054,483563245.275840
0.027073,0.473373,-0.216541,-0.042921,0.283677,0.957102,-0.040495,483563245.276267
0.027350,0.512836,-0.220344,-0.042815,0.284985,0.956475,-0.045886,483563245.291537
0.039649,0.491165,-0.198419,-0.043063,0.285845,0.955929,-0.051353,483563245.307587
0.060995,0.525996,-0.185681,-0.043827,0.286505,0.955391,-0.056765,483563245.308134
0.086548,0.556221,-0.180911,-0.044888,0.287237,0.954799,-0.061959,483563245.324012
0.117837,0.547961,-0.188723,-0.045608,0.288144,0.954158,-0.066896,483563245.339743
0.005418,0.491139,-0.309491,-0.045496,0.289293,0.953468,-0.071677,483563245.340131
0.013743,0.494529,-0.279241,-0.044592,0.290572,0.952744,-0.076542,483563245.356896
0.022679,0.505343,-0.225267,-0.043323,0.291769,0.952015,-0.081616,483563245.372092
0.020706,0.532605,-0.178121,-0.042264,0.292698,0.951317,-0.086822,483563245.372790
0.001185,0.564862,-0.151611,-0.041899,0.293319,0.950666,-0.091885,483563245.388081
-0.062435,0.556610,-0.181043,-0.042510,0.293697,0.950057,-0.096580,483563245.404050
-0.037877,0.518968,-0.204919,-0.043844,0.294094,0.949404,-0.101087,483563245.404426
-0.031544,0.494996,-0.220507,-0.045391,0.294774,0.948565,-0.106175,483563245.420172
-0.061236,0.561558,-0.184432,-0.047057,0.295880,0.947459,-0.112079,483563245.436187
-0.035310,0.526233,-0.209903,-0.048394,0.297596,0.946111,-0.118189,483563245.436687
-0.027177,0.504667,-0.227169,-0.049395,0.299739,0.944673,-0.123729,483563245.452283
-0.047327,0.494243,-0.237851,-0.050358,0.301900,0.943337,-0.128198,483563245.468463
-0.099394,0.511498,-0.259584,-0.051578,0.303803,0.942214,-0.131439,483563245.468848
-0.159040,0.561522,-0.238017,-0.053023,0.305440,0.941330,-0.133391,483563245.484522
-0.210313,0.623047,-0.163208,-0.054439,0.307039,0.940600,-0.134292,483563245.500717
-0.240152,0.657332,-0.141428,-0.055318,0.308847,0.939897,-0.134711,483563245.501088
-0.249314,0.657455,-0.159226,-0.055832,0.311172,0.938996,-0.135428,483563245.516592
-0.222535,0.524867,-0.265849,-0.056178,0.313913,0.937887,-0.136638,483563245.532599
-0.222268,0.466257,-0.295592,-0.056401,0.316791,0.936695,-0.138072,483563245.533030
-0.242437,0.435662,-0.274189,-0.056441,0.319498,0.935582,-0.139360,483563245.548594
-0.278934,0.467564,-0.240098,-0.056468,0.321740,0.934699,-0.140117,483563245.564535
-0.311356,0.520301,-0.204445,-0.056901,0.323337,0.934120,-0.140129,483563245.564907
-0.359420,0.533950,-0.162735,-0.057872,0.324172,0.933860,-0.139533,483563245.581351
-0.415000,0.536814,-0.144746,-0.059276,0.324225,0.933860,-0.138814,483563245.596819
-0.446639,0.481278,-0.101658,-0.060712,0.323679,0.934046,-0.138218,483563245.597192
-0.455494,0.461057,-0.129290,-0.061719,0.322849,0.934363,-0.137568,483563245.612821
-0.497521,0.453449,-0.164830,-0.061974,0.321927,0.934810,-0.136577,483563245.629145
-0.532381,0.461512,-0.179330,-0.061578,0.320783,0.935455,-0.135022,483563245.629532
-0.570318,0.477503,-0.167828,-0.060899,0.319318,0.936300,-0.132925,483563245.645025
-0.585988,0.487572,-0.143958,-0.060277,0.317564,0.937311,-0.130263,483563245.661221
-0.590059,0.489047,-0.123825,-0.059912,0.315700,0.938411,-0.126997,483563245.661592
-0.575932,0.497650,-0.105926,-0.059815,0.314035,0.939487,-0.123160,483563245.677166
-0.591243,0.488702,-0.110320,-0.059823,0.312803,0.940435,-0.118984,483563245.693718
-0.568975,0.493197,-0.104388,-0.060055,0.312041,0.941199,-0.114751,483563245.694158
-0.457619,0.464960,-0.095159,-0.060715,0.311585,0.941801,-0.110635,483563245.709341
-0.410024,0.432529,-0.090331,-0.061418,0.311222,0.942351,-0.106508,483563245.725436
-0.381945,0.412711,-0.109091,-0.061820,0.310669,0.942986,-0.102180,483563245.726087
-0.365223,0.416810,-0.131683,-0.061937,0.309830,0.943753,-0.097470,483563245.741838
-0.348484,0.447170,-0.155309,-0.061740,0.308911,0.944589,-0.092265,483563245.757557
-0.333833,0.480505,-0.181065,-0.061023,0.308163,0.945419,-0.086570,483563245.757968
-0.312620,0.493469,-0.204858,-0.059902,0.307693,0.946168,-0.080635,483563245.774204
-0.296639,0.487079,-0.236793,-0.058669,0.307570,0.946777,-0.074640,483563245.789847
-0.196803,0.422321,-0.249338,-0.057590,0.307726,0.947252,-0.068568,483563245.790257
-0.201066,0.416784,-0.254568,-0.056873,0.308128,0.947593,-0.062366,483563245.806054
-0.185211,0.425072,-0.273018,-0.056568,0.308792,0.947789,-0.056071,483563245.821772
-0.206207,0.424190,-0.251553,-0.056522,0.309717,0.947841,-0.049785,483563245.822132
-0.211864,0.419907,-0.257882,-0.056590,0.310858,0.947767,-0.043618,483563245.837774
-0.028698,0.408648,-0.304527,-0.056669,0.312079,0.947621,-0.037548,483563245.853635
-0.015308,0.417780,-0.300010,-0.056641,0.313231,0.947463,-0.031489,483563245.853859
-0.007696,0.451132,-0.277736,-0.056424,0.314185,0.947343,-0.025419,483563245.869296
0.005670,0.487609,-0.248963,-0.056122,0.314717,0.947328,-0.019324,483563245.885556
0.005037,0.506660,-0.208450,-0.056122,0.314509,0.947504,-0.013074,483563245.885829
0.003259,0.534465,-0.178836,-0.056579,0.313397,0.947913,-0.006434,483563245.901758
0.003713,0.559996,-0.177977,-0.057343,0.311607,0.948479,0.000633,483563245.917807
0.025205,0.567850,-0.192155,-0.058117,0.309425,0.949112,0.008071,483563245.918064
0.062411,0.554756,-0.211819,-0.058707,0.307144,0.949719,0.015770,483563245.933774
0.126721,0.488073,-0.230883,-0.058810,0.304961,0.950257,0.023499,483563245.950614
0.140265,0.471557,-0.213324,-0.058358,0.302942,0.950718,0.030912,483563245.951107
0.137574,0.467646,-0.211008,-0.057627,0.301166,0.951078,0.037802,483563245.966370
0.061239,0.475124,-0.161249,-0.057031,0.299642,0.951321,0.044159,483563245.982598
0.048478,0.480368,-0.135988,-0.056814,0.298209,0.951494,0.050028,483563245.982971
0.076026,0.452637,-0.175339,-0.057030,0.296795,0.951629,0.055349,483563245.998501
0.051422,0.465443,-0.156288,-0.057386,0.295405,0.951746,0.060185,483563246.014629
0.038339,0.470851,-0.131281,-0.057805,0.294043,0.951846,0.064702,483563246.015262
0.039380,0.468794,-0.118014,-0.058521,0.292712,0.951924,0.068823,483563246.031237
0.039781,0.475079,-0.132391,-0.059308,0.291301,0.952037,0.072473,483563246.046676
0.050900,0.487805,-0.156268,-0.059646,0.289667,0.952269,0.075630,483563246.047061
0.089030,0.494040,-0.188590,-0.059529,0.287924,0.952587,0.078320,483563246.062650
0.146619,0.466914,-0.217863,-0.059446,0.286446,0.952855,0.080511,483563246.079008
0.187033,0.442813,-0.216611,-0.059843,0.285657,0.952915,0.082293,483563246.079377
0.188696,0.421845,-0.189025,-0.060470,0.285740,0.952707,0.083933,483563246.095010
0.140868,0.429986,-0.154785,-0.060861,0.286444,0.952319,0.085637,483563246.111477
0.068750,0.445673,-0.130655,-0.060979,0.287252,0.951902,0.087467,483563246.111920
0.003993,0.487167,-0.128005,-0.061209,0.287685,0.951582,0.089345,483563246.127423
-0.004883,0.504335,-0.123210,-0.061765,0.287497,0.951435,0.091115,483563246.143135
0.007265,0.502629,-0.106558,-0.062414,0.286661,0.951492,0.092699,483563246.143550
0.024348,0.480356,-0.096948,-0.062697,0.285348,0.951731,0.094093,483563246.159005
0.036927,0.457670,-0.102750,-0.062487,0.283775,0.952097,0.095282,483563246.175742
0.063918,0.410491,-0.145659,-0.062082,0.282208,0.952508,0.096088,483563246.176227
0.052317,0.390950,-0.142922,-0.061767,0.280809,0.952909,0.096416,483563246.190776
0.038452,0.392782,-0.132913,-0.061616,0.279713,0.953247,0.096351,483563246.206631
0.064714,0.429815,-0.105766,-0.061663,0.279059,0.953465,0.096063,483563246.207736
0.052238,0.418821,-0.126246,-0.062006,0.278808,0.953562,0.095604,483563246.222806
0.037724,0.391206,-0.131087,-0.062446,0.278781,0.953598,0.095033,483563246.238798
0.030135,0.382534,-0.132002,-0.062689,0.278686,0.953680,0.094337,483563246.239139
0.022978,0.377393,-0.144553,-0.062832,0.278414,0.953852,0.093299,483563246.254886
0.018219,0.366562,-0.161893,-0.062861,0.278098,0.954072,0.091962,483563246.271656
0.012779,0.367582,-0.167715,-0.062655,0.278014,0.954244,0.090558,483563246.272329
0.004655,0.370339,-0.156209,-0.062253,0.278337,0.954315,0.089086,483563246.287718
0.007293,0.387907,-0.132168,-0.061623,0.278894,0.954344,0.087451,483563246.303745
-0.017400,0.409925,-0.117162,-0.060934,0.279422,0.954403,0.085592,483563246.304150
-0.043954,0.418155,-0.132379,-0.060470,0.279704,0.954530,0.083550,483563246.319751
-0.042669,0.418323,-0.132236,-0.060420,0.279587,0.954753,0.081410,483563246.336271
-0.083809,0.429607,-0.171609,-0.060784,0.279116,0.955044,0.079314,483563246.336699
-0.148295,0.428185,-0.171392,-0.061261,0.278475,0.955359,0.077382,483563246.351910
-0.148017,0.427276,-0.170772,-0.061644,0.277834,0.955657,0.075678,483563246.368217
-0.158055,0.431189,-0.195049,-0.061951,0.277339,0.955895,0.074233,483563246.368635
-0.177912,0.440144,-0.219723,-0.062260,0.277119,0.956022,0.073148,483563246.384070
-0.216777,0.452251,-0.248797,-0.062420,0.277199,0.956038,0.072490,483563246.400095
-0.206813,0.456639,-0.243066,-0.062224,0.277441,0.956005,0.072175,483563246.400468
-0.198536,0.448012,-0.215601,-0.061810,0.277782,0.955937,0.072116,483563246.416125
-0.179753,0.434813,-0.191062,-0.061389,0.278174,0.955851,0.072109,483563246.432170
-0.177576,0.429970,-0.167728,-0.061170,0.278576,0.955755,0.072018,483563246.432598
-0.184451,0.426874,-0.159346,-0.061308,0.278979,0.955646,0.071784,483563246.449193
-0.184035,0.429486,-0.157913,-0.061628,0.279388,0.955527,0.071502,483563246.464401
-0.153884,0.432323,-0.167145,-0.061860,0.279801,0.955407,0.071286,483563246.464831
-0.146391,0.421780,-0.162554,-0.061957,0.280218,0.955289,0.071147,483563246.480566
-0.138637,0.428270,-0.154105,-0.061826,0.280618,0.955188,0.071047,483563246.496586
-0.144616,0.433592,-0.154461,-0.061451,0.280935,0.955126,0.070947,483563246.496968
-0.158754,0.433941,-0.155643,-0.060913,0.281140,0.955108,0.070842,483563246.512490
-0.173558,0.436020,-0.160641,-0.060239,0.281252,0.955129,0.070692,483563246.528709
-0.179731,0.440855,-0.152647,-0.059450,0.281245,0.955185,0.070634,483563246.529174
-0.179285,0.441700,-0.139482,-0.058654,0.281103,0.955271,0.070691,483563246.544585
-0.170651,0.434775,-0.123133,-0.058073,0.280811,0.955385,0.070794,483563246.560572
-0.161821,0.435985,-0.115655,-0.057899,0.280356,0.955525,0.070855,483563246.561024
-0.150271,0.434957,-0.152455,-0.058034,0.279793,0.955686,0.070802,483563246.576800
-0.157210,0.433999,-0.172746,-0.058304,0.279338,0.955806,0.070756,483563246.592892
-0.147151,0.432731,-0.181403,-0.058526,0.279146,0.955837,0.070906,483563246.593279
-0.148145,0.433741,-0.184424,-0.058465,0.279214,0.955798,0.071219,483563246.608983
-0.138415,0.436059,-0.168754,-0.058133,0.279393,0.955733,0.071651,483563246.624887
-0.116976,0.353524,-0.101078,-0.045196,0.230030,0.969420,0.072582,483563246.625259
-0.093293,0.291351,-0.067524,-0.036901,0.198294,0.976704,0.073256,483563246.641197
-0.082747,0.250234,-0.043095,-0.030513,0.175981,0.981164,0.073605,483563246.657546
-0.063950,0.217862,-0.042213,-0.026919,0.159213,0.984089,0.074125,483563246.657926
-0.063281,0.189510,-0.027262,-0.023067,0.146651,0.986110,0.074485,483563246.673225
-0.052918,0.165505,-0.012566,-0.020376,0.136945,0.987528,0.074966,483563246.689594
-0.043225,0.157127,-0.011021,-0.018866,0.128599,0.988636,0.075526,483563246.690027
-0.060754,0.147714,-0.009476,-0.015710,0.121681,0.989555,0.075676,483563246.705363
-0.051133,0.135637,-0.017380,-0.013723,0.115824,0.990273,0.075872,483563246.721394
-0.043062,0.122107,-0.008243,-0.012346,0.111182,0.990795,0.076226,483563246.721829
-0.029444,0.109485,0.002404,-0.011452,0.107519,0.991174,0.076699,483563246.737370
-0.026986,0.110585,0.000843,-0.010392,0.104143,0.991512,0.077141,483563246.753460
-0.033874,0.107304,-0.018583,-0.008870,0.100981,0.991819,0.077586,483563246.754145
-0.035933,0.100817,-0.038123,-0.007288,0.098103,0.992081,0.078090,483563246.769600
-0.028589,0.093242,-0.036064,-0.006134,0.095586,0.992287,0.078686,483563246.785915
-0.028181,0.088061,-0.011655,-0.004698,0.090897,0.992688,0.079282,483563246.786476
-0.027008,0.088748,-0.011754,-0.004033,0.091199,0.992619,0.079832,483563246.801752
-0.013355,0.082810,0.007683,-0.003404,0.089502,0.992729,0.080414,483563246.817849
-0.012242,0.080212,0.008171,-0.002901,0.088148,0.992805,0.080995,483563246.818237
-0.011098,0.078072,0.008570,-0.002374,0.087023,0.992866,0.081482,483563246.833093
-0.022772,0.073840,-0.009810,-0.000756,0.085796,0.992963,0.081626,483563246.850005
-0.005914,0.063454,-0.028829,0.000296,0.084248,0.993098,0.081601,483563246.850402
0.022258,0.035933,-0.014797,-0.000611,0.081736,0.993296,0.081742,483563246.866158
0.027354,0.042939,0.101654,-0.000921,0.081278,0.993313,0.081987,483563246.882212
-0.025795,0.044240,0.090504,-0.000397,0.081176,0.993303,0.082220,483563246.882619
-0.081722,0.065393,0.006164,0.000908,0.081138,0.993309,0.082174,483563246.898689
