0.0 0.0 0.0
-0.00377256511898 0.00131032521355 0.0
-0.014939167214 0.00518885042648 0.0
-0.033351353095 0.0115840780626 0.0
-0.0588632720225 0.020445394463 0.0
-0.0913316215854 0.0317230056754 0.0
-0.130615612679 0.0453679285803 0.0
-0.17657697393 0.0613319981429 0.0
-0.229079914728 0.0795678733028 0.0
-0.287991045474 0.100029022546 0.0
-0.353179317951 0.122669687424 0.0
-0.424516005905 0.147444873784 0.0
-0.501874658013 0.174310364937 0.0
-0.58513101331 0.203222728625 0.0
-0.674163018479 0.234139283975 0.0
-0.768850858549 0.26701801257 0.0
-0.869076878651 0.301817523916 0.0
-0.974725487296 0.338497095386 0.0
-1.08568303496 0.377016642242 0.0
-1.2018377568 0.4173367537 0.0
-1.32307970488 0.459418791722 0.0
-1.44930063439 0.503224877121 0.0
-1.5803940513 0.548717805505 0.0
-1.71625537804 0.595860973402 0.0
-1.85678196821 0.644618350997 0.0
-2.00187302331 0.694954420794 0.0
-2.151429456 0.746834114159 0.0
-2.30535380705 0.800222870842 0.0
-2.46355024342 0.855086721237 0.0
-2.62592459313 0.9113922862 0.0
-2.79238427169 0.969106825559 0.0
-2.96283810313 1.02819808605 0.0
-3.13719627966 1.08863417401 0.0
-3.31537036798 1.1503836247 0.0
-3.49727333231 1.21341545263 0.0
-3.68281958599 1.27769921902 0.0
-3.87192502102 1.3432049788 0.0
-4.06450697999 1.4099033526 0.0
-4.26048410861 1.47776545361 0.0
-4.45977635786 1.54676274942 0.0
-4.66230520018 1.61686722624 0.0
-4.86799351763 1.68805139386 0.0
-5.07676537265 1.760288174 0.0
-5.28854601221 1.8335509049 0.0
-5.50326190119 1.90781335647 0.0
-5.7208406605 1.98304973514 0.0
-5.94121099527 2.05923465459 0.0
-6.16430266946 2.13634308202 0.0
-6.39004651788 2.21435031363 0.0
-6.6183744664 2.29323199507 0.0
-6.84921944987 2.37296416512 0.0
-7.08251535335 2.45352334211 0.0
-7.31819710225 2.53488655087 0.0
-7.55620071759 2.61703116784 0.0
-7.79646321012 2.69993471014 0.0
-8.03892246353 2.7835748589 0.0
-8.28351729349 2.86792962366 0.0
-8.53018742347 2.95297732094 0.0
-8.77887339994 3.03869652423 0.0
-9.02951661275 3.12506610709 0.0
-9.28205918306 3.21206524926 0.0
-9.53644395362 3.29967339305 0.0
-9.79261463491 3.38787026451 0.0
-10.0505157685 3.47663593078 0.0
-10.3100926223 3.56595068249 0.0
-10.5712911829 3.6557949694 0.0
-10.8340582484 3.74614953713 0.0
-11.098341407 3.8369954783 0.0
-11.3640889802 3.92831418744 0.0
-11.6312499946 4.0200872053 0.0
-11.8997741712 4.11229624158 0.0
-12.1696119475 4.20492329792 0.0
-12.4407144269 4.29795065998 0.0
-12.7130333815 4.39136091523 0.0
-12.9865212306 4.48513689357 0.0
-13.2611309853 4.57926158957 0.0
-13.5368162572 4.67371813516 0.0
-13.8135312567 4.76848981665 0.0
-14.0912307368 4.86356011922 0.0
-14.3698699449 4.95891275299 0.0
-14.6494047641 5.0545315955 0.0
-14.9297917267 5.15040067972 0.0
-15.2109878321 5.24650426618 0.0
-15.4929505333 5.34282686648 0.0
-15.7756377916 5.43935319967 0.0
-16.0590081209 5.53606815909 0.0
-16.3430206346 5.63295682684 0.0
-16.6276350439 5.73000448771 0.0
-16.9128116017 5.82719666502 0.0
-17.1985110603 5.92451910483 0.0
-17.4846946399 6.02195775188 0.0
-17.7713239927 6.11949874685 0.0
-18.0583612011 6.21712841239 0.0
-18.3457687706 6.31483331942 0.0
-18.6335096567 6.41260032944 0.0
-18.9215473505 6.51041655372 0.0
-19.2098458669 6.60826928393 0.0
-19.4983697068 6.70614597588 0.0
-19.7870838459 6.8040342507 0.0
-20.0759536345 6.90192181535 0.0
-20.3649446878 6.99979634264 0.0
-20.6540229214 7.09764554378 0.0
-20.9431546259 7.19545735122 0.0
-21.2323065001 7.29321991324 0.0
-21.5214456981 7.39092149507 0.0
-21.8105398101 7.4885503943 0.0
-22.0995568008 7.58609492261 0.0
-22.3884649509 7.68354343988 0.0
-22.6772327968 7.78088438468 0.0
-22.9658291243 7.87810631468 0.0
-23.254222998 7.97519794961 0.0
-23.5423837789 8.07214819558 0.0
-23.8302811414 8.16894614173 0.0
-24.1178850701 8.2655810516 0.0
-24.4051658242 8.36204237889 0.0
-24.6920939518 8.45831973703 0.0
-24.9786403578 8.5544028573 0.0
-25.2647762803 8.65028154281 0.0
-25.5504732614 8.74594564855 0.0
-25.8357031194 8.8413851794 0.0
-26.1204379192 8.93659028612 0.0
-26.4046499983 9.03155121086 0.0
-26.6883119637 9.12625829595 0.0
-26.9713966752 9.22070201673 0.0
-27.253877197 9.31487297625 0.0
-27.5357267737 9.40876184067 0.0
-27.816918837 9.50235932699 0.0
-28.0974271505 9.59565636937 0.0
-28.377225707 9.68864405433 0.0
-28.6562885924 9.78131337639 0.0
-28.9345902016 9.87365529891 0.0
-29.2121052007 9.96566087778 0.0
-29.4888084229 10.0573212601 0.0
-29.7646749316 10.1486277529 0.0
-30.0396800101 10.2395717753 0.0
-30.3137990828 10.3301447593 0.0
-30.5870076642 10.4203382165 0.0
-30.8592814486 10.5101439028 0.0
-31.1305964498 10.5995536372 0.0
-31.4009289122 10.6885590749 0.0
-31.6702551561 10.777151808 0.0
-31.9385516477 10.8653235102 0.0
-32.205795028 10.9530660443 0.0
-32.4719620846 11.0403713978 0.0
-32.7370298183 11.1272317027 0.0
-33.0009754857 11.2136392533 0.0
-33.2637766452 11.2995864605 0.0
-33.5254109892 11.3850657473 0.0
-33.7858562996 11.4700695711 0.0
-34.0450905964 11.5545905092 0.0
-34.3030921518 11.6386212298 0.0
-34.559839472 11.7221544602 0.0
-34.8153112286 11.805182985 0.0
-35.0694862112 11.8876996889 0.0
-35.3223433782 11.9696976155 0.0
-35.5738618887 12.0511699152 0.0
-35.8240210188 12.1321097566 0.0
-36.0728001412 12.2125103415 0.0
-36.3201787958 12.2923649295 0.0
-36.5661367021 12.3716668545 0.0
-36.8106536996 12.450409504 0.0
-37.053709741 12.5285862887 0.0
-37.2952850111 12.6061907391 0.0
-37.5353599416 12.6832164943 0.0
-37.7739151589 12.7596571855 0.0
-38.0109314682 12.8355065092 0.0
-38.2463898223 12.9107583313 0.0
-38.4802713012 12.9854067558 0.0
-38.7125571005 13.0594460864 0.0
-38.9432285483 13.1328707073 0.0
-39.1722671184 13.2056750182 0.0
-39.3996544377 13.2778534002 0.0
-39.6253722986 13.3494002098 0.0
-39.8494026412 13.4203098224 0.0
-40.0717275261 13.4905766929 0.0
-40.2923291409 13.5601953608 0.0
-40.5111898171 13.6291604127 0.0
-40.7282920415 13.6974664795 0.0
-40.9436184367 13.7651082946 0.0
-41.1571517349 13.8320807427 0.0
-41.3688747802 13.8983788605 0.0
-41.578770544 13.9639978027 0.0
-41.786822148 14.0289327797 0.0
-41.993012875 14.0931789849 0.0
-42.1973261517 14.1567315519 0.0
-42.3997455344 14.2195855753 0.0
-42.6002546804 14.2817362177 0.0
-42.7988373341 14.3431787777 0.0
-42.9954773448 14.4039086716 0.0
-43.1901586836 14.4639214104 0.0
-43.382865468 14.523212569 0.0
-43.573581981 14.5817777553 0.0
-43.7622926816 14.6396126033 0.0
-43.9489821997 14.696712789 0.0
-44.1336353038 14.7530740529 0.0
-44.3162368641 14.8086922085 0.0
-44.4967718528 14.8635631396 0.0
-44.6752253541 14.9176827932 0.0
-44.8515825848 14.9710471729 0.0
-45.0258289201 15.0236523466 0.0
-45.197949888 15.0754944474 0.0
-45.3679311643 15.1265696665 0.0
-45.5357585666 15.1768742611 0.0
-45.7014180287 15.2264045595 0.0
-45.8648955783 15.2751569418 0.0
-46.0261773625 15.3231278364 0.0
-46.1852496844 15.370313728 0.0
-46.3420990092 15.416711172 0.0
-46.4967119499 15.4623168017 0.0
-46.6490752522 15.5071273107 0.0
-46.7991757944 15.5511394298 0.0
-46.94700059 15.594349955 0.0
-47.092536788 15.6367557903 0.0
-47.2357716762 15.6783539252 0.0
-47.3766926923 15.7191413652 0.0
-47.515287423 15.7591150889 0.0
-47.6515435897 15.7982720832 0.0
-47.7854490474 15.8366093825 0.0
-47.9169917927 15.8741240853 0.0
-48.0461599774 15.9108133874 0.0
-48.1729419099 15.94667458 0.0
-48.2973260428 15.981705022 0.0
-48.4193009686 16.0159021362 0.0
-48.5388554115 16.04926343 0.0
-48.6559782236 16.081786486 0.0
-48.7706583903 16.1134689327 0.0
-48.882885028 16.1443084349 0.0
-48.9926473829 16.1743026483 0.0
-49.0999348256 16.2034492262 0.0
-49.204736842 16.2317458614 0.0
-49.3070430365 16.2591903126 0.0
-49.4068431621 16.2857803915 0.0
-49.5041271223 16.311513974 0.0
-49.5988849494 16.3363890486 0.0
-49.6911068081 16.3604037008 0.0
-49.7807830119 16.3835560861 0.0
-49.8679040564 16.4058443954 0.0
-49.9524606229 16.4272668591 0.0
-50.0344435433 16.4478217627 0.0
-50.1138437995 16.4675074355 0.0
-50.1906525373 16.4863222609 0.0
-50.2648610685 16.5042646932 0.0
-50.3364608743 16.521333265 0.0
-50.4054436057 16.5375266016 0.0
-50.4718010738 16.5528434234 0.0
-50.5355252395 16.567282525 0.0
-50.5966082048 16.5808427434 0.0
-50.6550422018 16.5935229522 0.0
-50.7108196221 16.6053220952 0.0
-50.7639330506 16.6162392203 0.0
-50.8143752801 16.6262734752 0.0
-50.8621393288 16.6354240819 0.0
-50.907218407 16.6436903308 0.0
-50.9496058619 16.6510715538 0.0
-50.9892950653 16.6575670678 0.0
-51.0262794268 16.6631761943 0.0
-51.060552636 16.6678983659 0.0
-51.0921086831 16.6717331176 0.0
-51.1209417101 16.6746800442 0.0
-51.1470459906 16.6767387837 0.0
-51.1704159323 16.6779089813 0.0
-51.1910460611 16.6781902788 0.0
-51.2089310237 16.6775823082 0.0
-51.224065594 16.6760846972 0.0
-51.2364447087 16.6736971078 0.0
-51.2460635034 16.6704192842 0.0
-51.2529172922 16.6662510491 0.0
-51.2570015332 16.6611922748 0.0
-51.2583118498 16.6552428626 0.0
-51.2568440483 16.6484027493 0.0
-51.2525941335 16.6406719239 0.0
-51.2455582984 16.632050441 0.0
-51.2357328881 16.6225384042 0.0
-51.2231143849 16.6121359407 0.0
-51.2076993999 16.600843208 0.0
-51.1894847132 16.5886604215 0.0
-51.1684672905 16.575587865 0.0
-51.1446442528 16.5616258908 0.0
-51.1180128765 16.546774925 0.0
-51.0885706187 16.5310354655 0.0
-51.0563151165 16.5144080672 0.0
-51.0212441935 16.4968933465 0.0
-50.9833558588 16.4784919697 0.0
-50.9426483294 16.4592046518 0.0
-50.8991200299 16.4390321571 0.0
-50.8527695727 16.417975288 0.0
-50.8035957714 16.3960349111 0.0
-50.7515976593 16.3732119611 0.0
-50.6967744852 16.3495074416 0.0
-50.6391256842 16.3249224189 0.0
-50.5786508743 16.2994580159 0.0
-50.5153498574 16.27311542 0.0
-50.4492226246 16.2458958828 0.0
-50.3802693669 16.2178007089 0.0
-50.3084904705 16.1888312507 0.0
-50.2338865015 16.1589889108 0.0
-50.1564582042 16.1282751529 0.0
-50.0762065053 16.0966915114 0.0
-49.993132516 16.0642395833 0.0
-49.9072375418 16.0309210337 0.0
-49.8185230952 15.996737605 0.0
-49.7269908919 15.9616911022 0.0
-49.6326428436 15.9257834033 0.0
-49.5354810542 15.8890164704 0.0
-49.4355078275 15.8513923326 0.0
-49.3327256896 15.8129130489 0.0
-49.2271373761 15.7735806887 0.0
-49.1187458102 15.7333973598 0.0
-49.0075540807 15.6923652151 0.0
-48.8935654156 15.65048645 0.0
-48.7767832253 15.6077632891 0.0
-48.6572110949 15.5641980052 0.0
-48.534852762 15.519792869 0.0
-48.4097121344 15.474550073 0.0
-48.2817932616 15.4284717862 0.0
-48.1511003437 15.3815602125 0.0
-48.01763776 15.3338176126 0.0
-47.8814100708 15.2852463532 0.0
-47.7424220511 15.2358489088 0.0
-47.6006787293 15.1856279128 0.0
-47.4561854101 15.1345860294 0.0
-47.3089475801 15.0827258389 0.0
-47.1589708574 15.0300499452 0.0
-47.0062610493 14.976561005 0.0
-46.8508241921 14.9222617547 0.0
-46.6926665742 14.8671550056 0.0
-46.531794703 14.8112436176 0.0
-46.3682152545 14.7545304785 0.0
-46.2019350507 14.6970184938 0.0
-46.0329611023 14.638710605 0.0
-45.8613006478 14.5796098121 0.0
-45.6869611417 14.5197191324 0.0
-45.5099502387 14.459041613 0.0
-45.3302757685 14.3975803829 0.0
-45.1479457133 14.3353386243 0.0
-44.9629682207 14.2723195506 0.0
-44.775351626 14.2085264134 0.0
-44.5851044644 14.1439625111 0.0
-44.3922354579 14.0786311797 0.0
-44.1967535122 14.0125358032 0.0
-43.9986677332 13.9456798318 0.0
-43.7979874347 13.8780667774 0.0
-43.5947221349 13.8097002055 0.0
-43.3888815465 13.7405836815 0.0
-43.1804755695 13.670720773 0.0
-42.969514299 13.6001151024 0.0
-42.7560080196 13.5287703419 0.0
-42.5399671914 13.4566902163 0.0
-42.3214023914 13.3838783947 0.0
-42.1003243544 13.3103384919 0.0
-41.8767441069 13.2360741992 0.0
-41.650672934 13.1610893178 0.0
-41.4221223005 13.0853877834 0.0
-41.1911038536 13.0089736496 0.0
-40.9576294876 12.9318510714 0.0
-40.7217113336 12.8540242856 0.0
-40.483361689 12.7754975059 0.0
-40.2425930528 12.6962748963 0.0
-39.9994181372 12.6163606385 0.0
-39.7538498062 12.5357589626 0.0
-39.5059010431 12.4544741283 0.0
-39.2555848699 12.3725104017 0.0
-39.0029143067 12.2898720981 0.0
-38.7479025995 12.2065636958 0.0
-38.4905632527 12.1225897953 0.0
-38.2309099099 12.0379550171 0.0
-37.9689563801 11.952663958 0.0
-37.7047167147 11.8667210989 0.0
-37.4382053547 11.7801307748 0.0
-37.1694370544 11.6928972136 0.0
-36.8984267551 11.6050247549 0.0
-36.6251895725 11.5165179719 0.0
-36.349740629 11.4273817578 0.0
-36.0720950405 11.3376211267 0.0
-35.7922681251 11.2472410357 0.0
-35.5102754936 11.1562465301 0.0
-35.2261329877 11.0646427854 0.0
-34.9398565814 10.9724350147 0.0
-34.6514624293 10.8796284373 0.0
-34.360966963 10.7862283105 0.0
-34.0683867982 10.6922399029 0.0
-33.7737387003 10.5976685796 0.0
-33.4770397274 10.5025198231 0.0
-33.1783070544 10.4067990332 0.0
-32.8775578839 10.310511466 0.0
-32.5748096688 10.2136625412 0.0
-32.2700801094 10.1162578943 0.0
-31.9633868664 10.0183031399 0.0
-31.6547476036 9.91980386546 0.0
-31.3441802415 9.82076570561 0.0
-31.0317029048 9.72119431108 0.0
-30.7173338499 9.62109530487 0.0
-30.4010914436 9.52047428725 0.0
-30.0829941937 9.41933687987 0.0
-29.7630607406 9.31768872836 0.0
-29.4413098034 9.21553549675 0.0
-29.1177601867 9.112882852 0.0
-28.7924308522 9.00973639637 0.0
-28.4653409524 8.90610155383 0.0
-28.1365097318 8.80198353699 0.0
-27.8059564526 8.69738749216 0.0
-27.4737004856 8.59231872051 0.0
-27.1397614453 8.48678270446 0.0
-26.8041591209 8.38078497667 0.0
-26.4669134319 8.27433115744 0.0
-26.1280444506 8.16742703535 0.0
-25.787572328 8.06007851638 0.0
-25.4455174132 7.9522915644 0.0
-25.1019002899 7.84407214433 0.0
-24.7567416105 7.73542614617 0.0
-24.4100621509 7.62635948979 0.0
-24.0618829133 7.51687830555 0.0
-23.7122250494 7.40698887109 0.0
-23.3611097124 7.29669743537 0.0
-23.0085580397 7.18601015403 0.0
-22.6545911729 7.07493310612 0.0
-22.2992302879 6.96347240272 0.0
-21.9424966758 6.85163413547 0.0
-21.5844117635 6.73942428716 0.0
-21.2249971378 6.62684879215 0.0
-20.8642745423 6.51391352109 0.0
-20.5022658641 6.40062433559 0.0
-20.1389931238 6.28698713822 0.0
-19.7744784327 6.17300789254 0.0
-19.4087439537 6.05869265942 0.0
-19.0418119387 5.94404756206 0.0
-18.6737048465 5.82907875115 0.0
